quartus/simulation/qsim/Cofre.msim.vcd
$comment
	File created using the following command:
		vcd file Cofre.msim.vcd -direction
$end
$date
	Sun May 14 10:24:37 2023
$end
$version
	ModelSim Version 2020.1
$end
$timescale
	1ps
$end

$scope module Cofre_vlg_vec_tst $end
$var reg 1 ! BM $end
$var reg 1 " C $end
$var reg 1 # CLOCK $end
$var reg 1 $ CT $end
$var reg 1 % ENTER $end
$var reg 1 & RESET $end
$var reg 7 ' TE [6:0] $end
$var reg 4 ( TeTemp [3:0] $end
$var wire 1 ) D0 [3] $end
$var wire 1 * D0 [2] $end
$var wire 1 + D0 [1] $end
$var wire 1 , D0 [0] $end
$var wire 1 - D1 [3] $end
$var wire 1 . D1 [2] $end
$var wire 1 / D1 [1] $end
$var wire 1 0 D1 [0] $end
$var wire 1 1 D2 [3] $end
$var wire 1 2 D2 [2] $end
$var wire 1 3 D2 [1] $end
$var wire 1 4 D2 [0] $end
$var wire 1 5 M [1] $end
$var wire 1 6 M [0] $end
$var wire 1 7 MM0 [3] $end
$var wire 1 8 MM0 [2] $end
$var wire 1 9 MM0 [1] $end
$var wire 1 : MM0 [0] $end
$var wire 1 ; MM1 [3] $end
$var wire 1 < MM1 [2] $end
$var wire 1 = MM1 [1] $end
$var wire 1 > MM1 [0] $end
$var wire 1 ? MM2 [3] $end
$var wire 1 @ MM2 [2] $end
$var wire 1 A MM2 [1] $end
$var wire 1 B MM2 [0] $end
$var wire 1 C N0 [6] $end
$var wire 1 D N0 [5] $end
$var wire 1 E N0 [4] $end
$var wire 1 F N0 [3] $end
$var wire 1 G N0 [2] $end
$var wire 1 H N0 [1] $end
$var wire 1 I N0 [0] $end
$var wire 1 J N1 [6] $end
$var wire 1 K N1 [5] $end
$var wire 1 L N1 [4] $end
$var wire 1 M N1 [3] $end
$var wire 1 N N1 [2] $end
$var wire 1 O N1 [1] $end
$var wire 1 P N1 [0] $end
$var wire 1 Q N2 [6] $end
$var wire 1 R N2 [5] $end
$var wire 1 S N2 [4] $end
$var wire 1 T N2 [3] $end
$var wire 1 U N2 [2] $end
$var wire 1 V N2 [1] $end
$var wire 1 W N2 [0] $end
$var wire 1 X S $end
$var wire 1 Y SINAL_CORRETA $end

$scope module i1 $end
$var wire 1 Z gnd $end
$var wire 1 [ vcc $end
$var wire 1 \ unknown $end
$var tri1 1 ] devclrn $end
$var tri1 1 ^ devpor $end
$var tri1 1 _ devoe $end
$var wire 1 ` CLOCK~input_o $end
$var wire 1 a CT~input_o $end
$var wire 1 b ENTER~input_o $end
$var wire 1 c TeTemp[3]~input_o $end
$var wire 1 d TeTemp[2]~input_o $end
$var wire 1 e TeTemp[1]~input_o $end
$var wire 1 f TeTemp[0]~input_o $end
$var wire 1 g C~input_o $end
$var wire 1 h BM~input_o $end
$var wire 1 i RESET~input_o $end
$var wire 1 j TE[6]~input_o $end
$var wire 1 k TE[5]~input_o $end
$var wire 1 l TE[4]~input_o $end
$var wire 1 m TE[3]~input_o $end
$var wire 1 n TE[2]~input_o $end
$var wire 1 o TE[1]~input_o $end
$var wire 1 p TE[0]~input_o $end
$var wire 1 q S~output_o $end
$var wire 1 r M[1]~output_o $end
$var wire 1 s M[0]~output_o $end
$var wire 1 t D2[3]~output_o $end
$var wire 1 u D2[2]~output_o $end
$var wire 1 v D2[1]~output_o $end
$var wire 1 w D2[0]~output_o $end
$var wire 1 x D1[3]~output_o $end
$var wire 1 y D1[2]~output_o $end
$var wire 1 z D1[1]~output_o $end
$var wire 1 { D1[0]~output_o $end
$var wire 1 | D0[3]~output_o $end
$var wire 1 } D0[2]~output_o $end
$var wire 1 ~ D0[1]~output_o $end
$var wire 1 !! D0[0]~output_o $end
$var wire 1 "! MM2[3]~output_o $end
$var wire 1 #! MM2[2]~output_o $end
$var wire 1 $! MM2[1]~output_o $end
$var wire 1 %! MM2[0]~output_o $end
$var wire 1 &! MM1[3]~output_o $end
$var wire 1 '! MM1[2]~output_o $end
$var wire 1 (! MM1[1]~output_o $end
$var wire 1 )! MM1[0]~output_o $end
$var wire 1 *! MM0[3]~output_o $end
$var wire 1 +! MM0[2]~output_o $end
$var wire 1 ,! MM0[1]~output_o $end
$var wire 1 -! MM0[0]~output_o $end
$var wire 1 .! SINAL_CORRETA~output_o $end
$var wire 1 /! N0[6]~output_o $end
$var wire 1 0! N0[5]~output_o $end
$var wire 1 1! N0[4]~output_o $end
$var wire 1 2! N0[3]~output_o $end
$var wire 1 3! N0[2]~output_o $end
$var wire 1 4! N0[1]~output_o $end
$var wire 1 5! N0[0]~output_o $end
$var wire 1 6! N1[6]~output_o $end
$var wire 1 7! N1[5]~output_o $end
$var wire 1 8! N1[4]~output_o $end
$var wire 1 9! N1[3]~output_o $end
$var wire 1 :! N1[2]~output_o $end
$var wire 1 ;! N1[1]~output_o $end
$var wire 1 <! N1[0]~output_o $end
$var wire 1 =! N2[6]~output_o $end
$var wire 1 >! N2[5]~output_o $end
$var wire 1 ?! N2[4]~output_o $end
$var wire 1 @! N2[3]~output_o $end
$var wire 1 A! N2[2]~output_o $end
$var wire 1 B! N2[1]~output_o $end
$var wire 1 C! N2[0]~output_o $end
$upscope $end
$upscope $end
$enddefinitions $end
#0
$dumpvars
0!
0"
0#
0$
0%
x&
bx '
b0 (
0,
0+
0*
0)
00
0/
0.
0-
04
03
02
01
06
05
0:
09
08
07
0>
0=
0<
0;
0B
0A
0@
0?
0I
0H
0G
0F
0E
0D
1C
0P
0O
0N
0M
0L
0K
1J
0W
0V
0U
0T
0S
0R
1Q
0X
1Y
0Z
1[
x\
1]
1^
1_
0`
0a
0b
0c
0d
0e
0f
0g
0h
xi
xj
xk
xl
xm
xn
xo
xp
0q
0r
0s
0t
0u
0v
0w
0x
0y
0z
0{
0|
0}
0~
0!!
0"!
0#!
0$!
0%!
0&!
0'!
0(!
0)!
0*!
0+!
0,!
0-!
1.!
1/!
00!
01!
02!
03!
04!
05!
16!
07!
08!
09!
0:!
0;!
0<!
1=!
0>!
0?!
0@!
0A!
0B!
0C!
$end
#10000
1#
1`
#20000
0#
0`
#30000
1#
1`
#40000
0#
0`
#50000
1#
1`
#60000
0#
0`
#70000
1#
1`
#80000
0#
0`
#90000
1#
1`
#100000
1!
0#
1h
0`
#110000
1#
1`
#120000
0#
0`
#130000
1#
1`
#140000
0!
0#
0h
0`
#150000
1#
1`
#160000
0#
0`
#170000
1#
1`
#180000
0#
0`
#190000
1#
1`
#200000
0#
0`
#210000
b1000 (
b1001 (
1#
1f
1c
1`
#220000
0#
0`
#230000
1#
1`
#240000
1%
0#
1b
0`
#250000
1#
1`
#260000
0%
0#
0b
0`
#270000
1#
1`
#280000
0#
0`
#290000
b1 (
b0 (
1#
0f
0c
1`
#300000
0#
0`
#310000
1#
1`
#320000
0#
0`
#330000
1#
1`
#340000
0#
0`
#350000
1#
1`
#360000
0#
0`
#370000
1#
1`
#380000
b10 (
0#
1e
0`
#390000
1#
1`
#400000
1%
0#
1b
0`
#410000
1#
1`
#420000
0%
0#
0b
0`
#430000
1#
1`
#440000
0#
0`
#450000
b0 (
1#
0e
1`
#460000
0#
0`
#470000
1#
1`
#480000
0#
0`
#490000
b1 (
1#
1f
1`
#500000
1%
0#
1b
0`
#510000
1#
1`
#520000
0#
0`
#530000
0%
1#
0b
1`
#540000
0#
0`
#550000
1#
1`
#560000
0#
0`
#570000
b0 (
1#
0f
1`
#580000
0#
0`
#590000
b1000 (
b1001 (
1#
1f
1c
1`
#600000
0#
0`
#610000
1%
1#
1b
1`
#620000
0%
0#
0b
0`
#630000
1#
1`
#640000
b1 (
b0 (
0#
0f
0c
0`
#650000
1#
1`
#660000
0#
0`
#670000
b1 (
1#
1f
1`
#680000
0#
0`
#690000
1%
1#
1b
1`
#700000
0%
0#
0b
0`
#710000
1#
1`
#720000
0#
0`
#730000
b0 (
1#
0f
1`
#740000
b1 (
0#
1f
0`
#750000
1#
1`
#760000
0#
0`
#770000
1%
1#
1b
1`
#780000
0#
0`
#790000
0%
1#
0b
1`
#800000
0#
0`
#810000
1#
1`
#820000
b0 (
0#
0f
0`
#830000
1#
1`
#840000
0#
0`
#850000
1#
1`
#860000
1$
0#
1a
0`
#870000
1#
1`
#880000
0#
0`
#890000
1#
1`
#900000
0$
0#
0a
0`
#910000
1#
1`
#920000
0#
0`
#930000
1#
1`
#940000
0#
0`
#950000
1#
1`
#960000
0#
0`
#970000
1#
1`
#980000
0#
0`
#990000
1#
1`
