quartus/simulation/qsim/Cofre.msim.vcd
$comment
	File created using the following command:
		vcd file Cofre.msim.vcd -direction
$end
$date
	Tue May 23 16:39:42 2023
$end
$version
	ModelSim Version 2020.1
$end
$timescale
	1ps
$end

$scope module Cofre_vlg_vec_tst $end
$var reg 1 ! BM $end
$var reg 1 " C $end
$var reg 1 # CLOCK $end
$var reg 1 $ CT $end
$var reg 1 % ENTER $end
$var reg 1 & RESET $end
$var reg 7 ' TE [6:0] $end
$var reg 4 ( TeTemp [3:0] $end
$var wire 1 ) D0 [3] $end
$var wire 1 * D0 [2] $end
$var wire 1 + D0 [1] $end
$var wire 1 , D0 [0] $end
$var wire 1 - D1 [3] $end
$var wire 1 . D1 [2] $end
$var wire 1 / D1 [1] $end
$var wire 1 0 D1 [0] $end
$var wire 1 1 D2 [3] $end
$var wire 1 2 D2 [2] $end
$var wire 1 3 D2 [1] $end
$var wire 1 4 D2 [0] $end
$var wire 1 5 I [1] $end
$var wire 1 6 I [0] $end
$var wire 1 7 M [1] $end
$var wire 1 8 M [0] $end
$var wire 1 9 MM0 [3] $end
$var wire 1 : MM0 [2] $end
$var wire 1 ; MM0 [1] $end
$var wire 1 < MM0 [0] $end
$var wire 1 = MM1 [3] $end
$var wire 1 > MM1 [2] $end
$var wire 1 ? MM1 [1] $end
$var wire 1 @ MM1 [0] $end
$var wire 1 A MM2 [3] $end
$var wire 1 B MM2 [2] $end
$var wire 1 C MM2 [1] $end
$var wire 1 D MM2 [0] $end
$var wire 1 E N0 [6] $end
$var wire 1 F N0 [5] $end
$var wire 1 G N0 [4] $end
$var wire 1 H N0 [3] $end
$var wire 1 I N0 [2] $end
$var wire 1 J N0 [1] $end
$var wire 1 K N0 [0] $end
$var wire 1 L N1 [6] $end
$var wire 1 M N1 [5] $end
$var wire 1 N N1 [4] $end
$var wire 1 O N1 [3] $end
$var wire 1 P N1 [2] $end
$var wire 1 Q N1 [1] $end
$var wire 1 R N1 [0] $end
$var wire 1 S N2 [6] $end
$var wire 1 T N2 [5] $end
$var wire 1 U N2 [4] $end
$var wire 1 V N2 [3] $end
$var wire 1 W N2 [2] $end
$var wire 1 X N2 [1] $end
$var wire 1 Y N2 [0] $end
$var wire 1 Z N3 [6] $end
$var wire 1 [ N3 [5] $end
$var wire 1 \ N3 [4] $end
$var wire 1 ] N3 [3] $end
$var wire 1 ^ N3 [2] $end
$var wire 1 _ N3 [1] $end
$var wire 1 ` N3 [0] $end
$var wire 1 a PENTER $end
$var wire 1 b S $end
$var wire 1 c SINAL_CORRETA $end

$scope module i1 $end
$var wire 1 d gnd $end
$var wire 1 e vcc $end
$var wire 1 f unknown $end
$var tri1 1 g devclrn $end
$var tri1 1 h devpor $end
$var tri1 1 i devoe $end
$var wire 1 j TE[6]~input_o $end
$var wire 1 k TE[5]~input_o $end
$var wire 1 l TE[4]~input_o $end
$var wire 1 m TE[3]~input_o $end
$var wire 1 n TE[2]~input_o $end
$var wire 1 o TE[1]~input_o $end
$var wire 1 p TE[0]~input_o $end
$var wire 1 q S~output_o $end
$var wire 1 r M[1]~output_o $end
$var wire 1 s M[0]~output_o $end
$var wire 1 t D2[3]~output_o $end
$var wire 1 u D2[2]~output_o $end
$var wire 1 v D2[1]~output_o $end
$var wire 1 w D2[0]~output_o $end
$var wire 1 x I[1]~output_o $end
$var wire 1 y I[0]~output_o $end
$var wire 1 z PENTER~output_o $end
$var wire 1 { D1[3]~output_o $end
$var wire 1 | D1[2]~output_o $end
$var wire 1 } D1[1]~output_o $end
$var wire 1 ~ D1[0]~output_o $end
$var wire 1 !! D0[3]~output_o $end
$var wire 1 "! D0[2]~output_o $end
$var wire 1 #! D0[1]~output_o $end
$var wire 1 $! D0[0]~output_o $end
$var wire 1 %! MM2[3]~output_o $end
$var wire 1 &! MM2[2]~output_o $end
$var wire 1 '! MM2[1]~output_o $end
$var wire 1 (! MM2[0]~output_o $end
$var wire 1 )! MM1[3]~output_o $end
$var wire 1 *! MM1[2]~output_o $end
$var wire 1 +! MM1[1]~output_o $end
$var wire 1 ,! MM1[0]~output_o $end
$var wire 1 -! MM0[3]~output_o $end
$var wire 1 .! MM0[2]~output_o $end
$var wire 1 /! MM0[1]~output_o $end
$var wire 1 0! MM0[0]~output_o $end
$var wire 1 1! SINAL_CORRETA~output_o $end
$var wire 1 2! N0[6]~output_o $end
$var wire 1 3! N0[5]~output_o $end
$var wire 1 4! N0[4]~output_o $end
$var wire 1 5! N0[3]~output_o $end
$var wire 1 6! N0[2]~output_o $end
$var wire 1 7! N0[1]~output_o $end
$var wire 1 8! N0[0]~output_o $end
$var wire 1 9! N1[6]~output_o $end
$var wire 1 :! N1[5]~output_o $end
$var wire 1 ;! N1[4]~output_o $end
$var wire 1 <! N1[3]~output_o $end
$var wire 1 =! N1[2]~output_o $end
$var wire 1 >! N1[1]~output_o $end
$var wire 1 ?! N1[0]~output_o $end
$var wire 1 @! N2[6]~output_o $end
$var wire 1 A! N2[5]~output_o $end
$var wire 1 B! N2[4]~output_o $end
$var wire 1 C! N2[3]~output_o $end
$var wire 1 D! N2[2]~output_o $end
$var wire 1 E! N2[1]~output_o $end
$var wire 1 F! N2[0]~output_o $end
$var wire 1 G! N3[6]~output_o $end
$var wire 1 H! N3[5]~output_o $end
$var wire 1 I! N3[4]~output_o $end
$var wire 1 J! N3[3]~output_o $end
$var wire 1 K! N3[2]~output_o $end
$var wire 1 L! N3[1]~output_o $end
$var wire 1 M! N3[0]~output_o $end
$var wire 1 N! CLOCK~input_o $end
$var wire 1 O! CLOCK~inputclkctrl_outclk $end
$var wire 1 P! C~input_o $end
$var wire 1 Q! inst8|inst7~combout $end
$var wire 1 R! inst8|inst~q $end
$var wire 1 S! inst8|inst8~0_combout $end
$var wire 1 T! inst8|inst1~q $end
$var wire 1 U! ENTER~input_o $end
$var wire 1 V! inst6|inst7~combout $end
$var wire 1 W! inst6|inst~q $end
$var wire 1 X! inst6|inst8~0_combout $end
$var wire 1 Y! inst6|inst1~q $end
$var wire 1 Z! inst10|inst10~0_combout $end
$var wire 1 [! RESET~input_o $end
$var wire 1 \! inst17|inst7~combout $end
$var wire 1 ]! inst17|inst~q $end
$var wire 1 ^! inst17|inst8~0_combout $end
$var wire 1 _! inst17|inst1~feeder_combout $end
$var wire 1 `! inst17|inst1~q $end
$var wire 1 a! inst100|inst7~combout $end
$var wire 1 b! inst100|inst~q $end
$var wire 1 c! inst100|inst8~0_combout $end
$var wire 1 d! inst100|inst1~feeder_combout $end
$var wire 1 e! inst100|inst1~q $end
$var wire 1 f! inst26~combout $end
$var wire 1 g! inst10|instI1~q $end
$var wire 1 h! inst10|instI~0_combout $end
$var wire 1 i! inst10|instI~feeder_combout $end
$var wire 1 j! inst10|instI~q $end
$var wire 1 k! inst31~combout $end
$var wire 1 l! inst31~clkctrl_outclk $end
$var wire 1 m! TeTemp[0]~input_o $end
$var wire 1 n! inst9|inst7~q $end
$var wire 1 o! TeTemp[1]~input_o $end
$var wire 1 p! inst9|inst9~feeder_combout $end
$var wire 1 q! inst9|inst9~q $end
$var wire 1 r! inst21~combout $end
$var wire 1 s! inst21~clkctrl_outclk $end
$var wire 1 t! inst3|inst7~feeder_combout $end
$var wire 1 u! inst3|inst7~q $end
$var wire 1 v! inst3|inst9~feeder_combout $end
$var wire 1 w! inst3|inst9~q $end
$var wire 1 x! inst79|inst101|auto_generated|aeb_output_dffe_d_wire0w[0]~1_combout $end
$var wire 1 y! TeTemp[2]~input_o $end
$var wire 1 z! inst9|inst2~q $end
$var wire 1 {! TeTemp[3]~input_o $end
$var wire 1 |! inst9|inst10~q $end
$var wire 1 }! inst3|inst2~feeder_combout $end
$var wire 1 ~! inst3|inst2~q $end
$var wire 1 !" inst3|inst10~q $end
$var wire 1 "" inst79|inst101|auto_generated|aeb_output_dffe_d_wire0w[0]~0_combout $end
$var wire 1 #" inst22~combout $end
$var wire 1 $" inst22~clkctrl_outclk $end
$var wire 1 %" inst3|inst12~feeder_combout $end
$var wire 1 &" inst3|inst12~q $end
$var wire 1 '" inst3|inst11~q $end
$var wire 1 (" inst32~combout $end
$var wire 1 )" inst32~clkctrl_outclk $end
$var wire 1 *" inst9|inst11~q $end
$var wire 1 +" inst9|inst12~feeder_combout $end
$var wire 1 ," inst9|inst12~q $end
$var wire 1 -" inst79|inst100|auto_generated|aeb_output_dffe_d_wire0w[0]~1_combout $end
$var wire 1 ." inst3|inst13~q $end
$var wire 1 /" inst3|inst3~feeder_combout $end
$var wire 1 0" inst3|inst3~q $end
$var wire 1 1" inst9|inst3~feeder_combout $end
$var wire 1 2" inst9|inst3~q $end
$var wire 1 3" inst9|inst13~feeder_combout $end
$var wire 1 4" inst9|inst13~q $end
$var wire 1 5" inst79|inst100|auto_generated|aeb_output_dffe_d_wire0w[0]~0_combout $end
$var wire 1 6" inst30~combout $end
$var wire 1 7" inst30~clkctrl_outclk $end
$var wire 1 8" inst9|inst~feeder_combout $end
$var wire 1 9" inst9|inst~q $end
$var wire 1 :" inst9|inst40~feeder_combout $end
$var wire 1 ;" inst9|inst40~q $end
$var wire 1 <" inst~combout $end
$var wire 1 =" inst~clkctrl_outclk $end
$var wire 1 >" inst3|inst~feeder_combout $end
$var wire 1 ?" inst3|inst~q $end
$var wire 1 @" inst3|inst40~feeder_combout $end
$var wire 1 A" inst3|inst40~q $end
$var wire 1 B" inst79|inst102|auto_generated|aeb_output_dffe_d_wire0w[0]~1_combout $end
$var wire 1 C" inst9|inst1~q $end
$var wire 1 D" inst9|inst8~q $end
$var wire 1 E" inst3|inst1~feeder_combout $end
$var wire 1 F" inst3|inst1~q $end
$var wire 1 G" inst3|inst8~feeder_combout $end
$var wire 1 H" inst3|inst8~q $end
$var wire 1 I" inst79|inst102|auto_generated|aeb_output_dffe_d_wire0w[0]~0_combout $end
$var wire 1 J" inst79|inst2~0_combout $end
$var wire 1 K" inst99|inst10~combout $end
$var wire 1 L" inst25~combout $end
$var wire 1 M" inst99|inst13~q $end
$var wire 1 N" CT~input_o $end
$var wire 1 O" inst4|inst7~combout $end
$var wire 1 P" inst4|inst~q $end
$var wire 1 Q" inst4|inst8~0_combout $end
$var wire 1 R" inst4|inst1~q $end
$var wire 1 S" inst99|inst11~0_combout $end
$var wire 1 T" BM~input_o $end
$var wire 1 U" inst5|inst7~combout $end
$var wire 1 V" inst5|inst~q $end
$var wire 1 W" inst5|inst8~0_combout $end
$var wire 1 X" inst5|inst1~q $end
$var wire 1 Y" inst99|inst7~0_combout $end
$var wire 1 Z" inst99|inst7~combout $end
$var wire 1 [" inst99|inst8~0_combout $end
$var wire 1 \" inst99|inst9~combout $end
$var wire 1 ]" inst99|inst15~q $end
$var wire 1 ^" inst1~combout $end
$var wire 1 _" inst41|87~combout $end
$var wire 1 `" inst41|86~0_combout $end
$var wire 1 a" inst41|85~combout $end
$var wire 1 b" inst41|84~0_combout $end
$var wire 1 c" inst41|83~combout $end
$var wire 1 d" inst41|82~0_combout $end
$var wire 1 e" inst41|81~0_combout $end
$var wire 1 f" inst46|87~combout $end
$var wire 1 g" inst46|86~0_combout $end
$var wire 1 h" inst46|85~combout $end
$var wire 1 i" inst46|84~0_combout $end
$var wire 1 j" inst46|83~combout $end
$var wire 1 k" inst46|82~0_combout $end
$var wire 1 l" inst46|81~0_combout $end
$var wire 1 m" inst19|87~combout $end
$var wire 1 n" inst19|86~0_combout $end
$var wire 1 o" inst19|85~combout $end
$var wire 1 p" inst19|84~0_combout $end
$var wire 1 q" inst19|83~combout $end
$var wire 1 r" inst19|82~0_combout $end
$var wire 1 s" inst19|81~0_combout $end
$var wire 1 t" inst79|inst100|auto_generated|aeb_output_dffe0a [0] $end
$var wire 1 u" inst79|inst101|auto_generated|aeb_output_dffe0a [0] $end
$var wire 1 v" inst79|inst102|auto_generated|aeb_output_dffe0a [0] $end
$var wire 1 w" inst79|inst101|auto_generated|aeb_output_dffe_d_wire0w [0] $end
$var wire 1 x" inst79|inst100|auto_generated|aeb_output_dffe_d_wire0w [0] $end
$var wire 1 y" inst79|inst102|auto_generated|aeb_output_dffe_d_wire0w [0] $end
$upscope $end
$upscope $end
$enddefinitions $end
#0
$dumpvars
0!
0"
0#
1$
0%
0&
bx '
b0 (
0,
0+
0*
0)
00
0/
0.
0-
04
03
02
01
06
05
08
07
0<
0;
0:
09
0@
0?
0>
0=
0D
0C
0B
0A
0K
0J
0I
0H
0G
0F
1E
0R
0Q
0P
0O
0N
0M
1L
0Y
0X
0W
0V
0U
0T
1S
1`
0_
0^
1]
1\
1[
1Z
0a
0b
0c
0d
1e
xf
1g
1h
1i
xj
xk
xl
xm
xn
xo
xp
0q
0r
0s
0t
0u
0v
0w
0x
0y
0z
0{
0|
0}
0~
0!!
0"!
0#!
0$!
0%!
0&!
0'!
0(!
0)!
0*!
0+!
0,!
0-!
0.!
0/!
00!
01!
12!
03!
04!
05!
06!
07!
08!
19!
0:!
0;!
0<!
0=!
0>!
0?!
1@!
0A!
0B!
0C!
0D!
0E!
0F!
1G!
1H!
1I!
1J!
0K!
0L!
1M!
0N!
0O!
0P!
0Q!
0R!
0S!
0T!
0U!
0V!
0W!
0X!
0Y!
0Z!
0[!
0\!
0]!
0^!
0_!
0`!
0a!
0b!
1c!
1d!
0e!
0f!
0g!
0h!
0i!
0j!
0k!
0l!
0m!
0n!
0o!
0p!
0q!
0r!
0s!
0t!
0u!
0v!
0w!
0x!
0y!
0z!
0{!
0|!
0}!
0~!
0!"
0""
0#"
0$"
0%"
0&"
0'"
0("
0)"
0*"
0+"
0,"
0-"
0."
0/"
00"
01"
02"
03"
04"
05"
16"
17"
08"
09"
0:"
0;"
0<"
0="
0>"
0?"
0@"
0A"
0B"
0C"
0D"
0E"
0F"
0G"
0H"
0I"
0J"
0K"
0L"
0M"
1N"
0O"
0P"
1Q"
0R"
0S"
0T"
0U"
0V"
0W"
0X"
0Y"
0Z"
0["
0\"
0]"
0^"
1_"
0`"
0a"
0b"
0c"
0d"
0e"
1f"
0g"
0h"
0i"
0j"
0k"
0l"
1m"
0n"
0o"
0p"
0q"
0r"
0s"
0t"
0u"
0v"
1w"
1x"
1y"
$end
#1000
1#
1N!
1O!
1v"
1t"
1u"
1J"
11!
1c
#2000
0#
0N!
0O!
1e!
1R"
1L"
1f!
0c!
1a!
0Q"
1O"
0d!
#3000
1#
1N!
1O!
#4000
0#
0N!
0O!
1b!
0e!
1P"
0R"
0L"
0f!
#5000
1#
1N!
1O!
#6000
0#
0N!
0O!
#7000
1#
1N!
1O!
#8000
0#
0N!
0O!
#9000
1#
1N!
1O!
#10000
0#
0N!
0O!
#11000
1#
1N!
1O!
#12000
0#
0N!
0O!
#13000
1#
1N!
1O!
#14000
0#
0N!
0O!
#15000
1#
1N!
1O!
#16000
0#
0N!
0O!
#17000
1#
1N!
1O!
#18000
0#
0N!
0O!
#19000
1#
1N!
1O!
#20000
1"
0#
1P!
0N!
0O!
1S!
#21000
1#
1N!
1O!
#22000
0#
0N!
0O!
1T!
1K"
0S!
1Q!
#23000
1#
1N!
1O!
#24000
0#
0N!
0O!
1R!
0T!
1M"
0G!
1s
1S"
0a!
18
0Z
0K"
1\"
1K"
#25000
1#
1N!
1O!
#26000
0#
0N!
0O!
0b!
1]"
0M!
0I!
0H!
1r
17
0[
0\
0`
1^"
1q
1b
#27000
1#
1N!
1O!
#28000
0#
0N!
0O!
#29000
1#
1N!
1O!
#30000
0"
0#
0P!
0N!
0O!
0Q!
#31000
1#
1N!
1O!
#32000
0#
0N!
0O!
0R!
#33000
1#
1N!
1O!
#34000
0#
0N!
0O!
#35000
1#
1N!
1O!
#36000
0#
0N!
0O!
#37000
1#
1N!
1O!
#38000
0#
0N!
0O!
#39000
1#
1N!
1O!
#40000
0#
0N!
0O!
#41000
1#
1N!
1O!
#42000
0#
0N!
0O!
#43000
1#
1N!
1O!
#44000
0#
0N!
0O!
#45000
1#
1N!
1O!
#46000
0#
0N!
0O!
#47000
1#
1N!
1O!
#48000
0#
0N!
0O!
#49000
1#
1N!
1O!
#50000
0#
0N!
0O!
#51000
1#
1N!
1O!
#52000
0#
0N!
0O!
#53000
1#
1N!
1O!
#54000
0#
0N!
0O!
#55000
1#
1N!
1O!
#56000
0#
0N!
0O!
#57000
1#
1N!
1O!
#58000
0#
0N!
0O!
#59000
1#
1N!
1O!
#60000
0$
0#
0N"
0N!
0O!
0O"
#61000
1#
1N!
1O!
#62000
0#
0N!
0O!
0P"
#63000
1#
1N!
1O!
#64000
0#
0N!
0O!
#65000
1#
1N!
1O!
#66000
0#
0N!
0O!
#67000
1#
1N!
1O!
#68000
0#
0N!
0O!
#69000
1#
1N!
1O!
#70000
0#
0N!
0O!
#71000
1#
1N!
1O!
#72000
0#
0N!
0O!
#73000
1#
1N!
1O!
#74000
0#
0N!
0O!
#75000
1#
1N!
1O!
#76000
0#
0N!
0O!
#77000
1#
1N!
1O!
#78000
0#
0N!
0O!
#79000
1#
1N!
1O!
#80000
0#
0N!
0O!
#81000
1#
1N!
1O!
#82000
0#
0N!
0O!
#83000
1#
1N!
1O!
#84000
0#
0N!
0O!
#85000
1#
1N!
1O!
#86000
0#
0N!
0O!
#87000
1#
1N!
1O!
#88000
0#
0N!
0O!
#89000
1#
1N!
1O!
#90000
0#
0N!
0O!
#91000
1#
1N!
1O!
#92000
0#
0N!
0O!
#93000
1#
1N!
1O!
#94000
0#
0N!
0O!
#95000
1#
1N!
1O!
#96000
0#
0N!
0O!
#97000
1#
1N!
1O!
#98000
0#
0N!
0O!
#99000
1#
1N!
1O!
#100000
0#
0N!
0O!
#101000
1#
1N!
1O!
#102000
0#
0N!
0O!
#103000
1#
1N!
1O!
#104000
0#
0N!
0O!
#105000
1#
1N!
1O!
#106000
0#
0N!
0O!
#107000
1#
1N!
1O!
#108000
0#
0N!
0O!
#109000
1#
1N!
1O!
#110000
0#
0N!
0O!
#111000
1#
1N!
1O!
#112000
0#
0N!
0O!
#113000
1#
1N!
1O!
#114000
0#
0N!
0O!
#115000
1#
1N!
1O!
#116000
0#
0N!
0O!
#117000
1#
1N!
1O!
#118000
0#
0N!
0O!
#119000
1#
1N!
1O!
#120000
0#
0N!
0O!
#121000
1#
1N!
1O!
#122000
0#
0N!
0O!
#123000
1#
1N!
1O!
#124000
0#
0N!
0O!
#125000
1#
1N!
1O!
#126000
0#
0N!
0O!
#127000
1#
1N!
1O!
#128000
0#
0N!
0O!
#129000
1#
1N!
1O!
#130000
0#
0N!
0O!
#131000
1#
1N!
1O!
#132000
0#
0N!
0O!
#133000
1#
1N!
1O!
#134000
0#
0N!
0O!
#135000
1#
1N!
1O!
#136000
0#
0N!
0O!
#137000
1#
1N!
1O!
#138000
0#
0N!
0O!
#139000
1#
1N!
1O!
#140000
0#
0N!
0O!
#141000
1#
1N!
1O!
#142000
0#
0N!
0O!
#143000
1#
1N!
1O!
#144000
0#
0N!
0O!
#145000
1#
1N!
1O!
#146000
0#
0N!
0O!
#147000
1#
1N!
1O!
#148000
0#
0N!
0O!
#149000
1#
1N!
1O!
#150000
1$
0#
1N"
0N!
0O!
1Q"
#151000
1#
1N!
1O!
#152000
0#
0N!
0O!
1R"
0S"
0Q"
1O"
0\"
0K"
#153000
1#
1N!
1O!
#154000
0#
0N!
0O!
1P"
0R"
0M"
0]"
1M!
1I!
1H!
1G!
0r
0s
1c!
08
07
1Z
1[
1\
1`
0^"
0q
0b
1d!
#155000
1#
1N!
1O!
#156000
0#
0N!
0O!
1e!
1L"
1f!
0c!
1a!
0d!
#157000
1#
1N!
1O!
#158000
0#
0N!
0O!
1b!
0e!
0L"
0f!
#159000
1#
1N!
1O!
#160000
0#
0N!
0O!
#161000
1#
1N!
1O!
#162000
0#
0N!
0O!
#163000
1#
1N!
1O!
#164000
0#
0N!
0O!
#165000
1#
1N!
1O!
#166000
0#
0N!
0O!
#167000
1#
1N!
1O!
#168000
0#
0N!
0O!
#169000
1#
1N!
1O!
#170000
0#
0N!
0O!
#171000
1#
1N!
1O!
#172000
0#
0N!
0O!
#173000
1#
1N!
1O!
#174000
0#
0N!
0O!
#175000
1#
1N!
1O!
#176000
0#
0N!
0O!
#177000
1#
1N!
1O!
#178000
0#
0N!
0O!
#179000
1#
1N!
1O!
#180000
1!
0#
1T"
0N!
0O!
1W"
#181000
1#
1N!
1O!
#182000
0#
0N!
0O!
1X"
1Y"
0W"
1U"
1Z"
1\"
#183000
1#
1N!
1O!
#184000
0#
0N!
0O!
1V"
0X"
1]"
0M!
0I!
0H!
1r
0Y"
1<"
0a!
17
0[
0\
0`
1="
1["
0J!
1K!
1L!
0Z"
1_
1^
0]
#185000
1#
1N!
1O!
#186000
0#
0N!
0O!
0b!
#187000
1#
1N!
1O!
#188000
0#
0N!
0O!
#189000
1#
1N!
1O!
#190000
0#
0N!
0O!
#191000
1#
1N!
1O!
#192000
0#
0N!
0O!
#193000
1#
1N!
1O!
#194000
0#
0N!
0O!
#195000
1#
1N!
1O!
#196000
0#
0N!
0O!
#197000
1#
1N!
1O!
#198000
0#
0N!
0O!
#199000
1#
1N!
1O!
#200000
0#
0N!
0O!
#201000
1#
1N!
1O!
#202000
0#
0N!
0O!
#203000
1#
1N!
1O!
#204000
0#
0N!
0O!
#205000
1#
1N!
1O!
#206000
0#
0N!
0O!
#207000
1#
1N!
1O!
#208000
0#
0N!
0O!
#209000
1#
1N!
1O!
#210000
0!
0#
0T"
0N!
0O!
0U"
#211000
1#
1N!
1O!
#212000
0#
0N!
0O!
0V"
#213000
1#
1N!
1O!
#214000
0#
0N!
0O!
#215000
1#
1N!
1O!
#216000
0#
0N!
0O!
#217000
1#
1N!
1O!
#218000
0#
0N!
0O!
#219000
1#
1N!
1O!
#220000
0#
0N!
0O!
#221000
1#
1N!
1O!
#222000
0#
0N!
0O!
#223000
1#
1N!
1O!
#224000
0#
0N!
0O!
#225000
1#
1N!
1O!
#226000
0#
0N!
0O!
#227000
1#
1N!
1O!
#228000
0#
0N!
0O!
#229000
1#
1N!
1O!
#230000
b1 (
0#
1m!
0N!
0O!
1>"
18"
1t!
#231000
1#
1N!
1O!
#232000
0#
0N!
0O!
#233000
1#
1N!
1O!
#234000
0#
0N!
0O!
#235000
1#
1N!
1O!
#236000
0#
0N!
0O!
#237000
1#
1N!
1O!
#238000
0#
0N!
0O!
#239000
1#
1N!
1O!
#240000
1%
0#
1U!
0N!
0O!
1X!
#241000
1#
1N!
1O!
#242000
0#
0N!
0O!
1Y!
1z
1a
1Z!
0X!
1V!
#243000
1#
1N!
1O!
#244000
0#
0N!
0O!
1W!
1g!
0Y!
0z
1y
0<"
06"
1r!
1k!
16
0a
1l!
1s!
07"
0="
1n!
1u!
1,!
1~
10
1@
1e"
1b"
1a"
1`"
13!
14!
15!
18!
1K
1H
1G
1F
#245000
1#
1N!
1O!
#246000
0#
0N!
0O!
#247000
1#
1N!
1O!
#248000
0#
0N!
0O!
#249000
1#
1N!
1O!
#250000
0%
0#
0U!
0N!
0O!
0V!
#251000
1#
1N!
1O!
#252000
0#
0N!
0O!
0W!
#253000
1#
1N!
1O!
#254000
0#
0N!
0O!
#255000
1#
1N!
1O!
#256000
0#
0N!
0O!
#257000
1#
1N!
1O!
#258000
0#
0N!
0O!
#259000
1#
1N!
1O!
#260000
0#
0N!
0O!
#261000
1#
1N!
1O!
#262000
0#
0N!
0O!
#263000
1#
1N!
1O!
#264000
0#
0N!
0O!
#265000
1#
1N!
1O!
#266000
0#
0N!
0O!
#267000
1#
1N!
1O!
#268000
0#
0N!
0O!
#269000
1#
1N!
1O!
#270000
b0 (
0#
0m!
0N!
0O!
0>"
08"
0t!
#271000
1#
1N!
1O!
#272000
0#
0N!
0O!
#273000
1#
1N!
1O!
#274000
0#
0N!
0O!
#275000
1#
1N!
1O!
#276000
0#
0N!
0O!
#277000
1#
1N!
1O!
#278000
0#
0N!
0O!
#279000
1#
1N!
1O!
#280000
1%
0#
1U!
0N!
0O!
1X!
#281000
1#
1N!
1O!
#282000
0#
0N!
0O!
1Y!
1z
1h!
1a
0Z!
0X!
1V!
1i!
#283000
1#
1N!
1O!
#284000
0#
0N!
0O!
1W!
0g!
0Y!
1j!
1x
0z
0y
1("
1#"
0r!
0k!
06
0a
15
0l!
0s!
1$"
1)"
#285000
1#
1N!
1O!
#286000
0#
0N!
0O!
#287000
1#
1N!
1O!
#288000
0#
0N!
0O!
#289000
1#
1N!
1O!
#290000
0#
0N!
0O!
#291000
1#
1N!
1O!
#292000
0#
0N!
0O!
#293000
1#
1N!
1O!
#294000
0#
0N!
0O!
#295000
1#
1N!
1O!
#296000
0#
0N!
0O!
#297000
1#
1N!
1O!
#298000
0#
0N!
0O!
#299000
1#
1N!
1O!
#300000
0%
0#
0U!
0N!
0O!
0V!
#301000
1#
1N!
1O!
#302000
0#
0N!
0O!
0W!
#303000
1#
1N!
1O!
#304000
0#
0N!
0O!
#305000
1#
1N!
1O!
#306000
0#
0N!
0O!
#307000
1#
1N!
1O!
#308000
0#
0N!
0O!
#309000
1#
1N!
1O!
#310000
0#
0N!
0O!
#311000
1#
1N!
1O!
#312000
0#
0N!
0O!
#313000
1#
1N!
1O!
#314000
0#
0N!
0O!
#315000
1#
1N!
1O!
#316000
0#
0N!
0O!
#317000
1#
1N!
1O!
#318000
0#
0N!
0O!
#319000
1#
1N!
1O!
#320000
0#
0N!
0O!
#321000
1#
1N!
1O!
#322000
0#
0N!
0O!
#323000
1#
1N!
1O!
#324000
0#
0N!
0O!
#325000
1#
1N!
1O!
#326000
0#
0N!
0O!
#327000
1#
1N!
1O!
#328000
0#
0N!
0O!
#329000
1#
1N!
1O!
#330000
0#
0N!
0O!
#331000
1#
1N!
1O!
#332000
0#
0N!
0O!
#333000
1#
1N!
1O!
#334000
0#
0N!
0O!
#335000
1#
1N!
1O!
#336000
0#
0N!
0O!
#337000
1#
1N!
1O!
#338000
0#
0N!
0O!
#339000
1#
1N!
1O!
#340000
b1 (
0#
1m!
0N!
0O!
1>"
18"
1t!
#341000
1#
1N!
1O!
#342000
0#
0N!
0O!
#343000
1#
1N!
1O!
#344000
0#
0N!
0O!
#345000
1#
1N!
1O!
#346000
0#
0N!
0O!
#347000
1#
1N!
1O!
#348000
0#
0N!
0O!
#349000
1#
1N!
1O!
#350000
1%
0#
1U!
0N!
0O!
1X!
#351000
1#
1N!
1O!
#352000
0#
0N!
0O!
1Y!
1z
0h!
1a
0X!
1V!
0i!
#353000
1#
1N!
1O!
#354000
0#
0N!
0O!
1W!
0Y!
0j!
0x
0z
1<"
16"
0("
0#"
0a
05
0$"
0)"
17"
1="
19"
1?"
10!
1$!
1,
1<
1s"
1p"
1o"
1n"
1A!
1B!
1C!
1F!
1Y
1V
1U
1T
#355000
1#
1N!
1O!
#356000
0#
0N!
0O!
#357000
1#
1N!
1O!
#358000
0#
0N!
0O!
#359000
1#
1N!
1O!
#360000
0#
0N!
0O!
#361000
1#
1N!
1O!
#362000
0#
0N!
0O!
#363000
1#
1N!
1O!
#364000
0#
0N!
0O!
#365000
1#
1N!
1O!
#366000
0#
0N!
0O!
#367000
1#
1N!
1O!
#368000
0#
0N!
0O!
#369000
1#
1N!
1O!
#370000
0%
0#
0U!
0N!
0O!
0V!
#371000
1#
1N!
1O!
#372000
0#
0N!
0O!
0W!
#373000
1#
1N!
1O!
#374000
0#
0N!
0O!
#375000
1#
1N!
1O!
#376000
0#
0N!
0O!
#377000
1#
1N!
1O!
#378000
0#
0N!
0O!
#379000
1#
1N!
1O!
#380000
0#
0N!
0O!
#381000
1#
1N!
1O!
#382000
0#
0N!
0O!
#383000
1#
1N!
1O!
#384000
0#
0N!
0O!
#385000
1#
1N!
1O!
#386000
0#
0N!
0O!
#387000
1#
1N!
1O!
#388000
0#
0N!
0O!
#389000
1#
1N!
1O!
#390000
0#
0N!
0O!
#391000
1#
1N!
1O!
#392000
0#
0N!
0O!
#393000
1#
1N!
1O!
#394000
0#
0N!
0O!
#395000
1#
1N!
1O!
#396000
0#
0N!
0O!
#397000
1#
1N!
1O!
#398000
0#
0N!
0O!
#399000
1#
1N!
1O!
#400000
1"
b0 (
0#
1P!
0m!
0N!
0O!
1S!
0>"
08"
0t!
#401000
1#
1N!
1O!
#402000
0#
0N!
0O!
1T!
0\"
0S!
1Q!
#403000
1#
1N!
1O!
#404000
0#
0N!
0O!
1R!
0T!
0]"
1M!
1I!
1H!
0r
0<"
1c!
07
1[
1\
1`
0="
1\"
0["
1J!
0K!
0L!
0_
0^
1]
1d!
0\"
#405000
1#
1N!
1O!
#406000
0#
0N!
0O!
1e!
1L"
1f!
0c!
1a!
0d!
0n!
09"
0$!
0~
1x!
1B"
00
0,
0e"
0b"
0a"
0`"
0s"
0p"
0o"
0n"
0A!
0B!
0C!
0F!
03!
04!
05!
08!
0K
0H
0G
0F
0Y
0V
0U
0T
0w"
0y"
#407000
1#
1N!
1O!
0v"
0u"
0J"
01!
0c
#408000
0#
0N!
0O!
1b!
0e!
0L"
0f!
#409000
1#
1N!
1O!
#410000
0#
0N!
0O!
#411000
1#
1N!
1O!
#412000
0#
0N!
0O!
#413000
1#
1N!
1O!
#414000
0#
0N!
0O!
#415000
1#
1N!
1O!
#416000
0#
0N!
0O!
#417000
1#
1N!
1O!
#418000
0#
0N!
0O!
#419000
1#
1N!
1O!
#420000
0#
0N!
0O!
#421000
1#
1N!
1O!
#422000
0#
0N!
0O!
#423000
1#
1N!
1O!
#424000
0#
0N!
0O!
#425000
1#
1N!
1O!
#426000
0#
0N!
0O!
#427000
1#
1N!
1O!
#428000
0#
0N!
0O!
#429000
1#
1N!
1O!
#430000
0"
0#
0P!
0N!
0O!
0Q!
#431000
1#
1N!
1O!
#432000
0#
0N!
0O!
0R!
#433000
1#
1N!
1O!
