quartus/simulation/qsim/Cofre.msim.vcd
$comment
	File created using the following command:
		vcd file Cofre.msim.vcd -direction
$end
$date
	Tue Jun 06 20:07:59 2023
$end
$version
	ModelSim Version 2020.1
$end
$timescale
	1ps
$end

$scope module Cofre_vlg_vec_tst $end
$var reg 1 ! BM $end
$var reg 1 " C $end
$var reg 1 # CLOCK $end
$var reg 1 $ CT $end
$var reg 1 % ENTER $end
$var reg 1 & RESET $end
$var reg 4 ' TeTemp [3:0] $end
$var wire 1 ( D0 [3] $end
$var wire 1 ) D0 [2] $end
$var wire 1 * D0 [1] $end
$var wire 1 + D0 [0] $end
$var wire 1 , D1 [3] $end
$var wire 1 - D1 [2] $end
$var wire 1 . D1 [1] $end
$var wire 1 / D1 [0] $end
$var wire 1 0 D2 [3] $end
$var wire 1 1 D2 [2] $end
$var wire 1 2 D2 [1] $end
$var wire 1 3 D2 [0] $end
$var wire 1 4 I [1] $end
$var wire 1 5 I [0] $end
$var wire 1 6 M [1] $end
$var wire 1 7 M [0] $end
$var wire 1 8 MM0 [3] $end
$var wire 1 9 MM0 [2] $end
$var wire 1 : MM0 [1] $end
$var wire 1 ; MM0 [0] $end
$var wire 1 < MM1 [3] $end
$var wire 1 = MM1 [2] $end
$var wire 1 > MM1 [1] $end
$var wire 1 ? MM1 [0] $end
$var wire 1 @ MM2 [3] $end
$var wire 1 A MM2 [2] $end
$var wire 1 B MM2 [1] $end
$var wire 1 C MM2 [0] $end
$var wire 1 D N0 [6] $end
$var wire 1 E N0 [5] $end
$var wire 1 F N0 [4] $end
$var wire 1 G N0 [3] $end
$var wire 1 H N0 [2] $end
$var wire 1 I N0 [1] $end
$var wire 1 J N0 [0] $end
$var wire 1 K N1 [6] $end
$var wire 1 L N1 [5] $end
$var wire 1 M N1 [4] $end
$var wire 1 N N1 [3] $end
$var wire 1 O N1 [2] $end
$var wire 1 P N1 [1] $end
$var wire 1 Q N1 [0] $end
$var wire 1 R N2 [6] $end
$var wire 1 S N2 [5] $end
$var wire 1 T N2 [4] $end
$var wire 1 U N2 [3] $end
$var wire 1 V N2 [2] $end
$var wire 1 W N2 [1] $end
$var wire 1 X N2 [0] $end
$var wire 1 Y N3 [6] $end
$var wire 1 Z N3 [5] $end
$var wire 1 [ N3 [4] $end
$var wire 1 \ N3 [3] $end
$var wire 1 ] N3 [2] $end
$var wire 1 ^ N3 [1] $end
$var wire 1 _ N3 [0] $end
$var wire 1 ` PENTER $end
$var wire 1 a S $end
$var wire 1 b SINAL_CORRETA $end

$scope module i1 $end
$var wire 1 c gnd $end
$var wire 1 d vcc $end
$var wire 1 e unknown $end
$var tri1 1 f devclrn $end
$var tri1 1 g devpor $end
$var tri1 1 h devoe $end
$var wire 1 i S~output_o $end
$var wire 1 j M[1]~output_o $end
$var wire 1 k M[0]~output_o $end
$var wire 1 l D2[3]~output_o $end
$var wire 1 m D2[2]~output_o $end
$var wire 1 n D2[1]~output_o $end
$var wire 1 o D2[0]~output_o $end
$var wire 1 p I[1]~output_o $end
$var wire 1 q I[0]~output_o $end
$var wire 1 r PENTER~output_o $end
$var wire 1 s D1[3]~output_o $end
$var wire 1 t D1[2]~output_o $end
$var wire 1 u D1[1]~output_o $end
$var wire 1 v D1[0]~output_o $end
$var wire 1 w D0[3]~output_o $end
$var wire 1 x D0[2]~output_o $end
$var wire 1 y D0[1]~output_o $end
$var wire 1 z D0[0]~output_o $end
$var wire 1 { MM2[3]~output_o $end
$var wire 1 | MM2[2]~output_o $end
$var wire 1 } MM2[1]~output_o $end
$var wire 1 ~ MM2[0]~output_o $end
$var wire 1 !! MM1[3]~output_o $end
$var wire 1 "! MM1[2]~output_o $end
$var wire 1 #! MM1[1]~output_o $end
$var wire 1 $! MM1[0]~output_o $end
$var wire 1 %! MM0[3]~output_o $end
$var wire 1 &! MM0[2]~output_o $end
$var wire 1 '! MM0[1]~output_o $end
$var wire 1 (! MM0[0]~output_o $end
$var wire 1 )! SINAL_CORRETA~output_o $end
$var wire 1 *! N0[6]~output_o $end
$var wire 1 +! N0[5]~output_o $end
$var wire 1 ,! N0[4]~output_o $end
$var wire 1 -! N0[3]~output_o $end
$var wire 1 .! N0[2]~output_o $end
$var wire 1 /! N0[1]~output_o $end
$var wire 1 0! N0[0]~output_o $end
$var wire 1 1! N1[6]~output_o $end
$var wire 1 2! N1[5]~output_o $end
$var wire 1 3! N1[4]~output_o $end
$var wire 1 4! N1[3]~output_o $end
$var wire 1 5! N1[2]~output_o $end
$var wire 1 6! N1[1]~output_o $end
$var wire 1 7! N1[0]~output_o $end
$var wire 1 8! N2[6]~output_o $end
$var wire 1 9! N2[5]~output_o $end
$var wire 1 :! N2[4]~output_o $end
$var wire 1 ;! N2[3]~output_o $end
$var wire 1 <! N2[2]~output_o $end
$var wire 1 =! N2[1]~output_o $end
$var wire 1 >! N2[0]~output_o $end
$var wire 1 ?! N3[6]~output_o $end
$var wire 1 @! N3[5]~output_o $end
$var wire 1 A! N3[4]~output_o $end
$var wire 1 B! N3[3]~output_o $end
$var wire 1 C! N3[2]~output_o $end
$var wire 1 D! N3[1]~output_o $end
$var wire 1 E! N3[0]~output_o $end
$var wire 1 F! CLOCK~input_o $end
$var wire 1 G! CLOCK~inputclkctrl_outclk $end
$var wire 1 H! CT~input_o $end
$var wire 1 I! inst4|inst7~combout $end
$var wire 1 J! inst4|inst~q $end
$var wire 1 K! inst4|inst8~0_combout $end
$var wire 1 L! inst4|inst1~q $end
$var wire 1 M! inst99|inst11~0_combout $end
$var wire 1 N! C~input_o $end
$var wire 1 O! inst8|inst7~combout $end
$var wire 1 P! inst8|inst~q $end
$var wire 1 Q! inst8|inst8~0_combout $end
$var wire 1 R! inst8|inst1~q $end
$var wire 1 S! inst99|inst8~0_combout $end
$var wire 1 T! ENTER~input_o $end
$var wire 1 U! inst6|inst7~combout $end
$var wire 1 V! inst6|inst~q $end
$var wire 1 W! inst6|inst8~0_combout $end
$var wire 1 X! inst6|inst1~q $end
$var wire 1 Y! inst10|inst10~0_combout $end
$var wire 1 Z! inst100|inst7~combout $end
$var wire 1 [! inst100|inst~q $end
$var wire 1 \! inst100|inst8~0_combout $end
$var wire 1 ]! inst100|inst1~feeder_combout $end
$var wire 1 ^! inst100|inst1~q $end
$var wire 1 _! RESET~input_o $end
$var wire 1 `! inst17|inst7~combout $end
$var wire 1 a! inst17|inst~q $end
$var wire 1 b! inst17|inst8~0_combout $end
$var wire 1 c! inst17|inst1~feeder_combout $end
$var wire 1 d! inst17|inst1~q $end
$var wire 1 e! inst26~combout $end
$var wire 1 f! inst10|instI1~q $end
$var wire 1 g! inst10|instI~0_combout $end
$var wire 1 h! inst10|instI~feeder_combout $end
$var wire 1 i! inst10|instI~q $end
$var wire 1 j! inst30~combout $end
$var wire 1 k! inst30~clkctrl_outclk $end
$var wire 1 l! TeTemp[2]~input_o $end
$var wire 1 m! inst9|inst1~q $end
$var wire 1 n! TeTemp[3]~input_o $end
$var wire 1 o! inst9|inst8~feeder_combout $end
$var wire 1 p! inst9|inst8~q $end
$var wire 1 q! inst~combout $end
$var wire 1 r! inst~clkctrl_outclk $end
$var wire 1 s! inst3|inst8~feeder_combout $end
$var wire 1 t! inst3|inst8~q $end
$var wire 1 u! inst3|inst1~q $end
$var wire 1 v! inst79|inst102|auto_generated|aeb_output_dffe_d_wire0w[0]~0_combout $end
$var wire 1 w! TeTemp[0]~input_o $end
$var wire 1 x! inst9|inst~feeder_combout $end
$var wire 1 y! inst9|inst~q $end
$var wire 1 z! TeTemp[1]~input_o $end
$var wire 1 {! inst9|inst40~feeder_combout $end
$var wire 1 |! inst9|inst40~q $end
$var wire 1 }! inst3|inst~feeder_combout $end
$var wire 1 ~! inst3|inst~q $end
$var wire 1 !" inst3|inst40~feeder_combout $end
$var wire 1 "" inst3|inst40~q $end
$var wire 1 #" inst79|inst102|auto_generated|aeb_output_dffe_d_wire0w[0]~1_combout $end
$var wire 1 $" BM~input_o $end
$var wire 1 %" inst5|inst7~combout $end
$var wire 1 &" inst5|inst~q $end
$var wire 1 '" inst5|inst8~0_combout $end
$var wire 1 (" inst5|inst1~q $end
$var wire 1 )" inst99|inst7~0_combout $end
$var wire 1 *" inst31~combout $end
$var wire 1 +" inst31~clkctrl_outclk $end
$var wire 1 ," inst9|inst9~feeder_combout $end
$var wire 1 -" inst9|inst9~q $end
$var wire 1 ." inst9|inst7~feeder_combout $end
$var wire 1 /" inst9|inst7~q $end
$var wire 1 0" inst21~combout $end
$var wire 1 1" inst21~clkctrl_outclk $end
$var wire 1 2" inst3|inst7~feeder_combout $end
$var wire 1 3" inst3|inst7~q $end
$var wire 1 4" inst3|inst9~feeder_combout $end
$var wire 1 5" inst3|inst9~q $end
$var wire 1 6" inst79|inst101|auto_generated|aeb_output_dffe_d_wire0w[0]~1_combout $end
$var wire 1 7" inst9|inst2~feeder_combout $end
$var wire 1 8" inst9|inst2~q $end
$var wire 1 9" inst9|inst10~q $end
$var wire 1 :" inst3|inst2~feeder_combout $end
$var wire 1 ;" inst3|inst2~q $end
$var wire 1 <" inst3|inst10~feeder_combout $end
$var wire 1 =" inst3|inst10~q $end
$var wire 1 >" inst79|inst101|auto_generated|aeb_output_dffe_d_wire0w[0]~0_combout $end
$var wire 1 ?" inst32~combout $end
$var wire 1 @" inst32~clkctrl_outclk $end
$var wire 1 A" inst9|inst12~feeder_combout $end
$var wire 1 B" inst9|inst12~q $end
$var wire 1 C" inst9|inst11~feeder_combout $end
$var wire 1 D" inst9|inst11~q $end
$var wire 1 E" inst22~combout $end
$var wire 1 F" inst22~clkctrl_outclk $end
$var wire 1 G" inst3|inst11~feeder_combout $end
$var wire 1 H" inst3|inst11~q $end
$var wire 1 I" inst3|inst12~q $end
$var wire 1 J" inst79|inst100|auto_generated|aeb_output_dffe_d_wire0w[0]~1_combout $end
$var wire 1 K" inst9|inst3~q $end
$var wire 1 L" inst9|inst13~q $end
$var wire 1 M" inst3|inst3~feeder_combout $end
$var wire 1 N" inst3|inst3~q $end
$var wire 1 O" inst3|inst13~q $end
$var wire 1 P" inst79|inst100|auto_generated|aeb_output_dffe_d_wire0w[0]~0_combout $end
$var wire 1 Q" inst99|inst7~combout $end
$var wire 1 R" inst99|inst9~combout $end
$var wire 1 S" inst25~combout $end
$var wire 1 T" inst99|inst15~q $end
$var wire 1 U" inst79|inst2~0_combout $end
$var wire 1 V" inst99|inst10~combout $end
$var wire 1 W" inst99|inst13~q $end
$var wire 1 X" inst1~combout $end
$var wire 1 Y" inst41|87~combout $end
$var wire 1 Z" inst41|86~0_combout $end
$var wire 1 [" inst41|85~combout $end
$var wire 1 \" inst41|84~0_combout $end
$var wire 1 ]" inst41|83~combout $end
$var wire 1 ^" inst41|82~0_combout $end
$var wire 1 _" inst41|81~0_combout $end
$var wire 1 `" inst46|87~combout $end
$var wire 1 a" inst46|86~0_combout $end
$var wire 1 b" inst46|85~combout $end
$var wire 1 c" inst46|84~0_combout $end
$var wire 1 d" inst46|83~combout $end
$var wire 1 e" inst46|82~0_combout $end
$var wire 1 f" inst46|81~0_combout $end
$var wire 1 g" inst19|87~combout $end
$var wire 1 h" inst19|86~0_combout $end
$var wire 1 i" inst19|85~combout $end
$var wire 1 j" inst19|84~0_combout $end
$var wire 1 k" inst19|83~combout $end
$var wire 1 l" inst19|82~0_combout $end
$var wire 1 m" inst19|81~0_combout $end
$var wire 1 n" inst79|inst100|auto_generated|aeb_output_dffe0a [0] $end
$var wire 1 o" inst79|inst101|auto_generated|aeb_output_dffe0a [0] $end
$var wire 1 p" inst79|inst102|auto_generated|aeb_output_dffe0a [0] $end
$var wire 1 q" inst79|inst101|auto_generated|aeb_output_dffe_d_wire0w [0] $end
$var wire 1 r" inst79|inst100|auto_generated|aeb_output_dffe_d_wire0w [0] $end
$var wire 1 s" inst79|inst102|auto_generated|aeb_output_dffe_d_wire0w [0] $end
$upscope $end
$upscope $end
$enddefinitions $end
#0
$dumpvars
0!
0"
0#
1$
0%
0&
b0 '
0+
0*
0)
0(
0/
0.
0-
0,
03
02
01
00
05
04
07
06
0;
0:
09
08
0?
0>
0=
0<
0C
0B
0A
0@
0J
0I
0H
0G
0F
0E
1D
0Q
0P
0O
0N
0M
0L
1K
0X
0W
0V
0U
0T
0S
1R
1_
0^
0]
1\
1[
1Z
1Y
0`
0a
0b
0c
1d
xe
1f
1g
1h
0i
0j
0k
0l
0m
0n
0o
0p
0q
0r
0s
0t
0u
0v
0w
0x
0y
0z
0{
0|
0}
0~
0!!
0"!
0#!
0$!
0%!
0&!
0'!
0(!
0)!
1*!
0+!
0,!
0-!
0.!
0/!
00!
11!
02!
03!
04!
05!
06!
07!
18!
09!
0:!
0;!
0<!
0=!
0>!
1?!
1@!
1A!
1B!
0C!
0D!
1E!
0F!
0G!
1H!
0I!
0J!
1K!
0L!
0M!
0N!
0O!
0P!
0Q!
0R!
0S!
0T!
0U!
0V!
0W!
0X!
0Y!
0Z!
0[!
1\!
1]!
0^!
0_!
0`!
0a!
0b!
0c!
0d!
0e!
0f!
0g!
0h!
0i!
1j!
1k!
0l!
0m!
0n!
0o!
0p!
0q!
0r!
0s!
0t!
0u!
0v!
0w!
0x!
0y!
0z!
0{!
0|!
0}!
0~!
0!"
0""
0#"
0$"
0%"
0&"
0'"
0("
0)"
0*"
0+"
0,"
0-"
0."
0/"
00"
01"
02"
03"
04"
05"
06"
07"
08"
09"
0:"
0;"
0<"
0="
0>"
0?"
0@"
0A"
0B"
0C"
0D"
0E"
0F"
0G"
0H"
0I"
0J"
0K"
0L"
0M"
0N"
0O"
0P"
0Q"
0R"
0S"
0T"
0U"
0V"
0W"
0X"
1Y"
0Z"
0["
0\"
0]"
0^"
0_"
1`"
0a"
0b"
0c"
0d"
0e"
0f"
1g"
0h"
0i"
0j"
0k"
0l"
0m"
0n"
0o"
0p"
1q"
1r"
1s"
$end
#100
1#
1F!
1G!
1n"
1o"
1p"
1U"
1)!
1b
#200
0#
0F!
0G!
1L!
1^!
1S"
1e!
0\!
1Z!
0K!
1I!
0]!
#300
1#
1F!
1G!
#400
0#
0F!
0G!
1J!
0L!
1[!
0^!
0S"
0e!
#500
1#
1F!
1G!
#600
0#
0F!
0G!
#700
1#
1F!
1G!
#800
0#
0F!
0G!
#900
1#
1F!
1G!
#1000
0#
0F!
0G!
#1100
1#
1F!
1G!
#1200
0#
0F!
0G!
#1300
1#
1F!
1G!
#1400
0#
0F!
0G!
#1500
1#
1F!
1G!
#1600
0#
0F!
0G!
#1700
1#
1F!
1G!
#1800
0#
0F!
0G!
#1900
1#
1F!
1G!
#2000
0#
0F!
0G!
#2100
1#
1F!
1G!
#2200
0#
0F!
0G!
#2300
1#
1F!
1G!
#2400
0#
0F!
0G!
#2500
1#
1F!
1G!
#2600
0#
0F!
0G!
#2700
1#
1F!
1G!
#2800
0#
0F!
0G!
#2900
1#
1F!
1G!
#3000
0#
0F!
0G!
#3100
1#
1F!
1G!
#3200
0#
0F!
0G!
#3300
1#
1F!
1G!
#3400
0#
0F!
0G!
#3500
1#
1F!
1G!
#3600
0#
0F!
0G!
#3700
1#
1F!
1G!
#3800
0#
0F!
0G!
#3900
1#
1F!
1G!
#4000
0#
0F!
0G!
#4100
1#
1F!
1G!
#4200
0#
0F!
0G!
#4300
1#
1F!
1G!
#4400
0#
0F!
0G!
#4500
1#
1F!
1G!
#4600
0#
0F!
0G!
#4700
1#
1F!
1G!
#4800
0#
0F!
0G!
#4900
1#
1F!
1G!
#5000
0#
0F!
0G!
#5100
1#
1F!
1G!
#5200
0#
0F!
0G!
#5300
1#
1F!
1G!
#5400
0#
0F!
0G!
#5500
1#
1F!
1G!
#5600
0#
0F!
0G!
#5700
1#
1F!
1G!
#5800
0#
0F!
0G!
#5900
1#
1F!
1G!
#6000
0#
0F!
0G!
#6100
1#
1F!
1G!
#6200
0#
0F!
0G!
#6300
1#
1F!
1G!
#6400
0#
0F!
0G!
#6500
1#
1F!
1G!
#6600
0#
0F!
0G!
#6700
1#
1F!
1G!
#6800
0#
0F!
0G!
#6900
1#
1F!
1G!
#7000
0#
0F!
0G!
#7100
1#
1F!
1G!
#7200
0#
0F!
0G!
#7300
1#
1F!
1G!
#7400
0#
0F!
0G!
#7500
1#
1F!
1G!
#7600
0#
0F!
0G!
#7700
1#
1F!
1G!
#7800
0#
0F!
0G!
#7900
1#
1F!
1G!
#8000
0#
0F!
0G!
#8100
1#
1F!
1G!
#8200
0#
0F!
0G!
#8300
1#
1F!
1G!
#8400
0#
0F!
0G!
#8500
1#
1F!
1G!
#8600
0#
0F!
0G!
#8700
1#
1F!
1G!
#8800
0#
0F!
0G!
#8900
1#
1F!
1G!
#9000
0#
0F!
0G!
#9100
1#
1F!
1G!
#9200
0#
0F!
0G!
#9300
1#
1F!
1G!
#9400
0#
0F!
0G!
#9500
1#
1F!
1G!
#9600
0#
0F!
0G!
#9700
1#
1F!
1G!
#9800
0#
0F!
0G!
#9900
1#
1F!
1G!
#10000
0#
0F!
0G!
#10100
1#
1F!
1G!
#10200
0#
0F!
0G!
#10300
1#
1F!
1G!
#10400
0#
0F!
0G!
#10500
1#
1F!
1G!
#10600
0#
0F!
0G!
#10700
1#
1F!
1G!
#10800
0#
0F!
0G!
#10900
1#
1F!
1G!
#11000
0#
0F!
0G!
#11100
1#
1F!
1G!
#11200
0#
0F!
0G!
#11300
1#
1F!
1G!
#11400
0#
0F!
0G!
#11500
1#
1F!
1G!
#11600
0#
0F!
0G!
#11700
1#
1F!
1G!
#11800
0#
0F!
0G!
#11900
1#
1F!
1G!
#12000
0#
0F!
0G!
#12100
1#
1F!
1G!
#12200
0#
0F!
0G!
#12300
1#
1F!
1G!
#12400
0#
0F!
0G!
#12500
1#
1F!
1G!
#12600
0#
0F!
0G!
#12700
1#
1F!
1G!
#12800
0#
0F!
0G!
#12900
1#
1F!
1G!
#13000
0#
0F!
0G!
#13100
1#
1F!
1G!
#13200
0#
0F!
0G!
#13300
1#
1F!
1G!
#13400
0#
0F!
0G!
#13500
1#
1F!
1G!
#13600
0#
0F!
0G!
#13700
1#
1F!
1G!
#13800
0#
0F!
0G!
#13900
1#
1F!
1G!
#14000
0#
0F!
0G!
#14100
1#
1F!
1G!
#14200
0#
0F!
0G!
#14300
1#
1F!
1G!
#14400
0#
0F!
0G!
#14500
1#
1F!
1G!
#14600
0#
0F!
0G!
#14700
1#
1F!
1G!
#14800
0#
0F!
0G!
#14900
1#
1F!
1G!
#15000
0#
0F!
0G!
#15100
1#
1F!
1G!
#15200
0#
0F!
0G!
#15300
1#
1F!
1G!
#15400
0#
0F!
0G!
#15500
1#
1F!
1G!
#15600
0#
0F!
0G!
#15700
1#
1F!
1G!
#15800
0#
0F!
0G!
#15900
1#
1F!
1G!
#16000
0#
0F!
0G!
#16100
1#
1F!
1G!
#16200
0#
0F!
0G!
#16300
1#
1F!
1G!
#16400
0#
0F!
0G!
#16500
1#
1F!
1G!
#16600
0#
0F!
0G!
#16700
1#
1F!
1G!
#16800
0#
0F!
0G!
#16900
1#
1F!
1G!
#17000
0#
0F!
0G!
#17100
1#
1F!
1G!
#17200
0#
0F!
0G!
#17300
1#
1F!
1G!
#17400
0#
0F!
0G!
#17500
1#
1F!
1G!
#17600
0#
0F!
0G!
#17700
1#
1F!
1G!
#17800
0#
0F!
0G!
#17900
1#
1F!
1G!
#18000
0#
0F!
0G!
#18100
1#
1F!
1G!
#18200
0#
0F!
0G!
#18300
1#
1F!
1G!
#18400
0#
0F!
0G!
#18500
1#
1F!
1G!
#18600
0#
0F!
0G!
#18700
1#
1F!
1G!
#18800
0#
0F!
0G!
#18900
1#
1F!
1G!
#19000
0#
0F!
0G!
#19100
1#
1F!
1G!
#19200
0#
0F!
0G!
#19300
1#
1F!
1G!
#19400
0#
0F!
0G!
#19500
1#
1F!
1G!
#19600
0#
0F!
0G!
#19700
1#
1F!
1G!
#19800
0#
0F!
0G!
#19900
1#
1F!
1G!
#20000
1"
0#
1N!
0F!
0G!
1Q!
#20100
1#
1F!
1G!
#20200
0#
0F!
0G!
1R!
1V"
0Q!
1O!
#20300
1#
1F!
1G!
#20400
0#
0F!
0G!
1P!
0R!
1W"
0?!
1k
0Z!
1M!
17
0Y
0V"
1V"
1R"
#20500
1#
1F!
1G!
#20600
0#
0F!
0G!
0[!
1T"
0E!
0A!
0@!
1j
16
0Z
0[
0_
1X"
1i
1a
#20700
1#
1F!
1G!
#20800
0#
0F!
0G!
#20900
1#
1F!
1G!
#21000
0#
0F!
0G!
#21100
1#
1F!
1G!
#21200
0#
0F!
0G!
#21300
1#
1F!
1G!
#21400
0#
0F!
0G!
#21500
1#
1F!
1G!
#21600
0#
0F!
0G!
#21700
1#
1F!
1G!
#21800
0#
0F!
0G!
#21900
1#
1F!
1G!
#22000
0#
0F!
0G!
#22100
1#
1F!
1G!
#22200
0#
0F!
0G!
#22300
1#
1F!
1G!
#22400
0#
0F!
0G!
#22500
1#
1F!
1G!
#22600
0#
0F!
0G!
#22700
1#
1F!
1G!
#22800
0#
0F!
0G!
#22900
1#
1F!
1G!
#23000
0#
0F!
0G!
#23100
1#
1F!
1G!
#23200
0#
0F!
0G!
#23300
1#
1F!
1G!
#23400
0#
0F!
0G!
#23500
1#
1F!
1G!
#23600
0#
0F!
0G!
#23700
1#
1F!
1G!
#23800
0#
0F!
0G!
#23900
1#
1F!
1G!
#24000
0#
0F!
0G!
#24100
1#
1F!
1G!
#24200
0#
0F!
0G!
#24300
1#
1F!
1G!
#24400
0#
0F!
0G!
#24500
1#
1F!
1G!
#24600
0#
0F!
0G!
#24700
1#
1F!
1G!
#24800
0#
0F!
0G!
#24900
1#
1F!
1G!
#25000
0#
0F!
0G!
#25100
1#
1F!
1G!
#25200
0#
0F!
0G!
#25300
1#
1F!
1G!
#25400
0#
0F!
0G!
#25500
1#
1F!
1G!
#25600
0#
0F!
0G!
#25700
1#
1F!
1G!
#25800
0#
0F!
0G!
#25900
1#
1F!
1G!
#26000
0#
0F!
0G!
#26100
1#
1F!
1G!
#26200
0#
0F!
0G!
#26300
1#
1F!
1G!
#26400
0#
0F!
0G!
#26500
1#
1F!
1G!
#26600
0#
0F!
0G!
#26700
1#
1F!
1G!
#26800
0#
0F!
0G!
#26900
1#
1F!
1G!
#27000
0#
0F!
0G!
#27100
1#
1F!
1G!
#27200
0#
0F!
0G!
#27300
1#
1F!
1G!
#27400
0#
0F!
0G!
#27500
1#
1F!
1G!
#27600
0#
0F!
0G!
#27700
1#
1F!
1G!
#27800
0#
0F!
0G!
#27900
1#
1F!
1G!
#28000
0#
0F!
0G!
#28100
1#
1F!
1G!
#28200
0#
0F!
0G!
#28300
1#
1F!
1G!
#28400
0#
0F!
0G!
#28500
1#
1F!
1G!
#28600
0#
0F!
0G!
#28700
1#
1F!
1G!
#28800
0#
0F!
0G!
#28900
1#
1F!
1G!
#29000
0#
0F!
0G!
#29100
1#
1F!
1G!
#29200
0#
0F!
0G!
#29300
1#
1F!
1G!
#29400
0#
0F!
0G!
#29500
1#
1F!
1G!
#29600
0#
0F!
0G!
#29700
1#
1F!
1G!
#29800
0#
0F!
0G!
#29900
1#
1F!
1G!
#30000
0"
0#
0N!
0F!
0G!
0O!
#30100
1#
1F!
1G!
#30200
0#
0F!
0G!
0P!
#30300
1#
1F!
1G!
#30400
0#
0F!
0G!
#30500
1#
1F!
1G!
#30600
0#
0F!
0G!
#30700
1#
1F!
1G!
#30800
0#
0F!
0G!
#30900
1#
1F!
1G!
#31000
0#
0F!
0G!
#31100
1#
1F!
1G!
#31200
0#
0F!
0G!
#31300
1#
1F!
1G!
#31400
0#
0F!
0G!
#31500
1#
1F!
1G!
#31600
0#
0F!
0G!
#31700
1#
1F!
1G!
#31800
0#
0F!
0G!
#31900
1#
1F!
1G!
#32000
0#
0F!
0G!
#32100
1#
1F!
1G!
#32200
0#
0F!
0G!
#32300
1#
1F!
1G!
#32400
0#
0F!
0G!
#32500
1#
1F!
1G!
#32600
0#
0F!
0G!
#32700
1#
1F!
1G!
#32800
0#
0F!
0G!
#32900
1#
1F!
1G!
#33000
0#
0F!
0G!
#33100
1#
1F!
1G!
#33200
0#
0F!
0G!
#33300
1#
1F!
1G!
#33400
0#
0F!
0G!
#33500
1#
1F!
1G!
#33600
0#
0F!
0G!
#33700
1#
1F!
1G!
#33800
0#
0F!
0G!
#33900
1#
1F!
1G!
#34000
0#
0F!
0G!
#34100
1#
1F!
1G!
#34200
0#
0F!
0G!
#34300
1#
1F!
1G!
#34400
0#
0F!
0G!
#34500
1#
1F!
1G!
#34600
0#
0F!
0G!
#34700
1#
1F!
1G!
#34800
0#
0F!
0G!
#34900
1#
1F!
1G!
#35000
0#
0F!
0G!
#35100
1#
1F!
1G!
#35200
0#
0F!
0G!
#35300
1#
1F!
1G!
#35400
0#
0F!
0G!
#35500
1#
1F!
1G!
#35600
0#
0F!
0G!
#35700
1#
1F!
1G!
#35800
0#
0F!
0G!
#35900
1#
1F!
1G!
#36000
0#
0F!
0G!
#36100
1#
1F!
1G!
#36200
0#
0F!
0G!
#36300
1#
1F!
1G!
#36400
0#
0F!
0G!
#36500
1#
1F!
1G!
#36600
0#
0F!
0G!
#36700
1#
1F!
1G!
#36800
0#
0F!
0G!
#36900
1#
1F!
1G!
#37000
0#
0F!
0G!
#37100
1#
1F!
1G!
#37200
0#
0F!
0G!
#37300
1#
1F!
1G!
#37400
0#
0F!
0G!
#37500
1#
1F!
1G!
#37600
0#
0F!
0G!
#37700
1#
1F!
1G!
#37800
0#
0F!
0G!
#37900
1#
1F!
1G!
#38000
0#
0F!
0G!
#38100
1#
1F!
1G!
#38200
0#
0F!
0G!
#38300
1#
1F!
1G!
#38400
0#
0F!
0G!
#38500
1#
1F!
1G!
#38600
0#
0F!
0G!
#38700
1#
1F!
1G!
#38800
0#
0F!
0G!
#38900
1#
1F!
1G!
#39000
0#
0F!
0G!
#39100
1#
1F!
1G!
#39200
0#
0F!
0G!
#39300
1#
1F!
1G!
#39400
0#
0F!
0G!
#39500
1#
1F!
1G!
#39600
0#
0F!
0G!
#39700
1#
1F!
1G!
#39800
0#
0F!
0G!
#39900
1#
1F!
1G!
#40000
0#
0F!
0G!
#40100
1#
1F!
1G!
#40200
0#
0F!
0G!
#40300
1#
1F!
1G!
#40400
0#
0F!
0G!
#40500
1#
1F!
1G!
#40600
0#
0F!
0G!
#40700
1#
1F!
1G!
#40800
0#
0F!
0G!
#40900
1#
1F!
1G!
#41000
0#
0F!
0G!
#41100
1#
1F!
1G!
#41200
0#
0F!
0G!
#41300
1#
1F!
1G!
#41400
0#
0F!
0G!
#41500
1#
1F!
1G!
#41600
0#
0F!
0G!
#41700
1#
1F!
1G!
#41800
0#
0F!
0G!
#41900
1#
1F!
1G!
#42000
0#
0F!
0G!
#42100
1#
1F!
1G!
#42200
0#
0F!
0G!
#42300
1#
1F!
1G!
#42400
0#
0F!
0G!
#42500
1#
1F!
1G!
#42600
0#
0F!
0G!
#42700
1#
1F!
1G!
#42800
0#
0F!
0G!
#42900
1#
1F!
1G!
#43000
0#
0F!
0G!
#43100
1#
1F!
1G!
#43200
0#
0F!
0G!
#43300
1#
1F!
1G!
#43400
0#
0F!
0G!
#43500
1#
1F!
1G!
#43600
0#
0F!
0G!
#43700
1#
1F!
1G!
#43800
0#
0F!
0G!
#43900
1#
1F!
1G!
#44000
0#
0F!
0G!
#44100
1#
1F!
1G!
#44200
0#
0F!
0G!
#44300
1#
1F!
1G!
#44400
0#
0F!
0G!
#44500
1#
1F!
1G!
#44600
0#
0F!
0G!
#44700
1#
1F!
1G!
#44800
0#
0F!
0G!
#44900
1#
1F!
1G!
#45000
0#
0F!
0G!
#45100
1#
1F!
1G!
#45200
0#
0F!
0G!
#45300
1#
1F!
1G!
#45400
0#
0F!
0G!
#45500
1#
1F!
1G!
#45600
0#
0F!
0G!
#45700
1#
1F!
1G!
#45800
0#
0F!
0G!
#45900
1#
1F!
1G!
#46000
0#
0F!
0G!
#46100
1#
1F!
1G!
#46200
0#
0F!
0G!
#46300
1#
1F!
1G!
#46400
0#
0F!
0G!
#46500
1#
1F!
1G!
#46600
0#
0F!
0G!
#46700
1#
1F!
1G!
#46800
0#
0F!
0G!
#46900
1#
1F!
1G!
#47000
0#
0F!
0G!
#47100
1#
1F!
1G!
#47200
0#
0F!
0G!
#47300
1#
1F!
1G!
#47400
0#
0F!
0G!
#47500
1#
1F!
1G!
#47600
0#
0F!
0G!
#47700
1#
1F!
1G!
#47800
0#
0F!
0G!
#47900
1#
1F!
1G!
#48000
0#
0F!
0G!
#48100
1#
1F!
1G!
#48200
0#
0F!
0G!
#48300
1#
1F!
1G!
#48400
0#
0F!
0G!
#48500
1#
1F!
1G!
#48600
0#
0F!
0G!
#48700
1#
1F!
1G!
#48800
0#
0F!
0G!
#48900
1#
1F!
1G!
#49000
0#
0F!
0G!
#49100
1#
1F!
1G!
#49200
0#
0F!
0G!
#49300
1#
1F!
1G!
#49400
0#
0F!
0G!
#49500
1#
1F!
1G!
#49600
0#
0F!
0G!
#49700
1#
1F!
1G!
#49800
0#
0F!
0G!
#49900
1#
1F!
1G!
#50000
0$
0#
0H!
0F!
0G!
0I!
#50100
1#
1F!
1G!
#50200
0#
0F!
0G!
0J!
#50300
1#
1F!
1G!
#50400
0#
0F!
0G!
#50500
1#
1F!
1G!
#50600
0#
0F!
0G!
#50700
1#
1F!
1G!
#50800
0#
0F!
0G!
#50900
1#
1F!
1G!
#51000
0#
0F!
0G!
#51100
1#
1F!
1G!
#51200
0#
0F!
0G!
#51300
1#
1F!
1G!
#51400
0#
0F!
0G!
#51500
1#
1F!
1G!
#51600
0#
0F!
0G!
#51700
1#
1F!
1G!
#51800
0#
0F!
0G!
