quartus/simulation/qsim/Cofre.msim.vcd
$comment
	File created using the following command:
		vcd file Cofre.msim.vcd -direction
$end
$date
	Sun May 14 19:45:05 2023
$end
$version
	ModelSim Version 2020.1
$end
$timescale
	1ps
$end

$scope module Cofre_vlg_vec_tst $end
$var reg 1 ! BM $end
$var reg 1 " C $end
$var reg 1 # CLOCK $end
$var reg 1 $ CT $end
$var reg 1 % ENTER $end
$var reg 1 & RESET $end
$var reg 7 ' TE [6:0] $end
$var reg 4 ( TeTemp [3:0] $end
$var wire 1 ) D0 [3] $end
$var wire 1 * D0 [2] $end
$var wire 1 + D0 [1] $end
$var wire 1 , D0 [0] $end
$var wire 1 - D1 [3] $end
$var wire 1 . D1 [2] $end
$var wire 1 / D1 [1] $end
$var wire 1 0 D1 [0] $end
$var wire 1 1 D2 [3] $end
$var wire 1 2 D2 [2] $end
$var wire 1 3 D2 [1] $end
$var wire 1 4 D2 [0] $end
$var wire 1 5 I [1] $end
$var wire 1 6 I [0] $end
$var wire 1 7 M [1] $end
$var wire 1 8 M [0] $end
$var wire 1 9 MM0 [3] $end
$var wire 1 : MM0 [2] $end
$var wire 1 ; MM0 [1] $end
$var wire 1 < MM0 [0] $end
$var wire 1 = MM1 [3] $end
$var wire 1 > MM1 [2] $end
$var wire 1 ? MM1 [1] $end
$var wire 1 @ MM1 [0] $end
$var wire 1 A MM2 [3] $end
$var wire 1 B MM2 [2] $end
$var wire 1 C MM2 [1] $end
$var wire 1 D MM2 [0] $end
$var wire 1 E N0 [6] $end
$var wire 1 F N0 [5] $end
$var wire 1 G N0 [4] $end
$var wire 1 H N0 [3] $end
$var wire 1 I N0 [2] $end
$var wire 1 J N0 [1] $end
$var wire 1 K N0 [0] $end
$var wire 1 L N1 [6] $end
$var wire 1 M N1 [5] $end
$var wire 1 N N1 [4] $end
$var wire 1 O N1 [3] $end
$var wire 1 P N1 [2] $end
$var wire 1 Q N1 [1] $end
$var wire 1 R N1 [0] $end
$var wire 1 S N2 [6] $end
$var wire 1 T N2 [5] $end
$var wire 1 U N2 [4] $end
$var wire 1 V N2 [3] $end
$var wire 1 W N2 [2] $end
$var wire 1 X N2 [1] $end
$var wire 1 Y N2 [0] $end
$var wire 1 Z PENTER $end
$var wire 1 [ S $end
$var wire 1 \ SINAL_CORRETA $end

$scope module i1 $end
$var wire 1 ] gnd $end
$var wire 1 ^ vcc $end
$var wire 1 _ unknown $end
$var tri1 1 ` devclrn $end
$var tri1 1 a devpor $end
$var tri1 1 b devoe $end
$var wire 1 c RESET~input_o $end
$var wire 1 d TE[6]~input_o $end
$var wire 1 e TE[5]~input_o $end
$var wire 1 f TE[4]~input_o $end
$var wire 1 g TE[3]~input_o $end
$var wire 1 h TE[2]~input_o $end
$var wire 1 i TE[1]~input_o $end
$var wire 1 j TE[0]~input_o $end
$var wire 1 k S~output_o $end
$var wire 1 l M[1]~output_o $end
$var wire 1 m M[0]~output_o $end
$var wire 1 n D2[3]~output_o $end
$var wire 1 o D2[2]~output_o $end
$var wire 1 p D2[1]~output_o $end
$var wire 1 q D2[0]~output_o $end
$var wire 1 r I[1]~output_o $end
$var wire 1 s I[0]~output_o $end
$var wire 1 t PENTER~output_o $end
$var wire 1 u D1[3]~output_o $end
$var wire 1 v D1[2]~output_o $end
$var wire 1 w D1[1]~output_o $end
$var wire 1 x D1[0]~output_o $end
$var wire 1 y D0[3]~output_o $end
$var wire 1 z D0[2]~output_o $end
$var wire 1 { D0[1]~output_o $end
$var wire 1 | D0[0]~output_o $end
$var wire 1 } MM2[3]~output_o $end
$var wire 1 ~ MM2[2]~output_o $end
$var wire 1 !! MM2[1]~output_o $end
$var wire 1 "! MM2[0]~output_o $end
$var wire 1 #! MM1[3]~output_o $end
$var wire 1 $! MM1[2]~output_o $end
$var wire 1 %! MM1[1]~output_o $end
$var wire 1 &! MM1[0]~output_o $end
$var wire 1 '! MM0[3]~output_o $end
$var wire 1 (! MM0[2]~output_o $end
$var wire 1 )! MM0[1]~output_o $end
$var wire 1 *! MM0[0]~output_o $end
$var wire 1 +! SINAL_CORRETA~output_o $end
$var wire 1 ,! N0[6]~output_o $end
$var wire 1 -! N0[5]~output_o $end
$var wire 1 .! N0[4]~output_o $end
$var wire 1 /! N0[3]~output_o $end
$var wire 1 0! N0[2]~output_o $end
$var wire 1 1! N0[1]~output_o $end
$var wire 1 2! N0[0]~output_o $end
$var wire 1 3! N1[6]~output_o $end
$var wire 1 4! N1[5]~output_o $end
$var wire 1 5! N1[4]~output_o $end
$var wire 1 6! N1[3]~output_o $end
$var wire 1 7! N1[2]~output_o $end
$var wire 1 8! N1[1]~output_o $end
$var wire 1 9! N1[0]~output_o $end
$var wire 1 :! N2[6]~output_o $end
$var wire 1 ;! N2[5]~output_o $end
$var wire 1 <! N2[4]~output_o $end
$var wire 1 =! N2[3]~output_o $end
$var wire 1 >! N2[2]~output_o $end
$var wire 1 ?! N2[1]~output_o $end
$var wire 1 @! N2[0]~output_o $end
$var wire 1 A! CLOCK~input_o $end
$var wire 1 B! CLOCK~inputclkctrl_outclk $end
$var wire 1 C! C~input_o $end
$var wire 1 D! inst8|inst7~combout $end
$var wire 1 E! inst8|inst~q $end
$var wire 1 F! inst8|inst8~0_combout $end
$var wire 1 G! inst8|inst1~q $end
$var wire 1 H! CT~input_o $end
$var wire 1 I! inst4|inst7~combout $end
$var wire 1 J! inst4|inst~q $end
$var wire 1 K! inst4|inst8~0_combout $end
$var wire 1 L! inst4|inst1~q $end
$var wire 1 M! inst99|inst9~0_combout $end
$var wire 1 N! BM~input_o $end
$var wire 1 O! inst5|inst7~combout $end
$var wire 1 P! inst5|inst~q $end
$var wire 1 Q! inst5|inst8~0_combout $end
$var wire 1 R! inst5|inst1~q $end
$var wire 1 S! inst99|inst9~combout $end
$var wire 1 T! inst99|inst15~q $end
$var wire 1 U! ENTER~input_o $end
$var wire 1 V! inst6|inst7~combout $end
$var wire 1 W! inst6|inst~q $end
$var wire 1 X! inst6|inst8~0_combout $end
$var wire 1 Y! inst6|inst1~q $end
$var wire 1 Z! inst10|instI9~combout $end
$var wire 1 [! inst100|inst7~combout $end
$var wire 1 \! inst100|inst~feeder_combout $end
$var wire 1 ]! inst100|inst~q $end
$var wire 1 ^! inst100|inst8~0_combout $end
$var wire 1 _! inst100|inst1~feeder_combout $end
$var wire 1 `! inst100|inst1~q $end
$var wire 1 a! inst10|instI1~q $end
$var wire 1 b! inst10|instI~0_combout $end
$var wire 1 c! inst10|instI~q $end
$var wire 1 d! inst30~combout $end
$var wire 1 e! inst30~clkctrl_outclk $end
$var wire 1 f! TeTemp[0]~input_o $end
$var wire 1 g! inst9|inst~feeder_combout $end
$var wire 1 h! inst9|inst~q $end
$var wire 1 i! TeTemp[1]~input_o $end
$var wire 1 j! inst9|inst40~feeder_combout $end
$var wire 1 k! inst9|inst40~q $end
$var wire 1 l! inst~combout $end
$var wire 1 m! inst~clkctrl_outclk $end
$var wire 1 n! inst3|inst~feeder_combout $end
$var wire 1 o! inst3|inst~q $end
$var wire 1 p! inst3|inst40~feeder_combout $end
$var wire 1 q! inst3|inst40~q $end
$var wire 1 r! inst79|inst102|auto_generated|aeb_output_dffe_d_wire0w[0]~1_combout $end
$var wire 1 s! TeTemp[2]~input_o $end
$var wire 1 t! inst9|inst1~feeder_combout $end
$var wire 1 u! inst9|inst1~q $end
$var wire 1 v! TeTemp[3]~input_o $end
$var wire 1 w! inst9|inst8~q $end
$var wire 1 x! inst3|inst1~feeder_combout $end
$var wire 1 y! inst3|inst1~q $end
$var wire 1 z! inst3|inst8~q $end
$var wire 1 {! inst79|inst102|auto_generated|aeb_output_dffe_d_wire0w[0]~0_combout $end
$var wire 1 |! inst21~combout $end
$var wire 1 }! inst21~clkctrl_outclk $end
$var wire 1 ~! inst3|inst7~feeder_combout $end
$var wire 1 !" inst3|inst7~q $end
$var wire 1 "" inst31~combout $end
$var wire 1 #" inst31~clkctrl_outclk $end
$var wire 1 $" inst9|inst7~feeder_combout $end
$var wire 1 %" inst9|inst7~q $end
$var wire 1 &" inst9|inst9~feeder_combout $end
$var wire 1 '" inst9|inst9~q $end
$var wire 1 (" inst3|inst9~feeder_combout $end
$var wire 1 )" inst3|inst9~q $end
$var wire 1 *" inst79|inst101|auto_generated|aeb_output_dffe_d_wire0w[0]~1_combout $end
$var wire 1 +" inst9|inst10~q $end
$var wire 1 ," inst9|inst2~feeder_combout $end
$var wire 1 -" inst9|inst2~q $end
$var wire 1 ." inst3|inst2~q $end
$var wire 1 /" inst3|inst10~q $end
$var wire 1 0" inst79|inst101|auto_generated|aeb_output_dffe_d_wire0w[0]~0_combout $end
$var wire 1 1" inst22~combout $end
$var wire 1 2" inst22~clkctrl_outclk $end
$var wire 1 3" inst3|inst11~feeder_combout $end
$var wire 1 4" inst3|inst11~q $end
$var wire 1 5" inst3|inst12~feeder_combout $end
$var wire 1 6" inst3|inst12~q $end
$var wire 1 7" inst32~combout $end
$var wire 1 8" inst32~clkctrl_outclk $end
$var wire 1 9" inst9|inst11~feeder_combout $end
$var wire 1 :" inst9|inst11~q $end
$var wire 1 ;" inst9|inst12~feeder_combout $end
$var wire 1 <" inst9|inst12~q $end
$var wire 1 =" inst79|inst100|auto_generated|aeb_output_dffe_d_wire0w[0]~1_combout $end
$var wire 1 >" inst3|inst3~feeder_combout $end
$var wire 1 ?" inst3|inst3~q $end
$var wire 1 @" inst3|inst13~feeder_combout $end
$var wire 1 A" inst3|inst13~q $end
$var wire 1 B" inst9|inst3~feeder_combout $end
$var wire 1 C" inst9|inst3~q $end
$var wire 1 D" inst9|inst13~feeder_combout $end
$var wire 1 E" inst9|inst13~q $end
$var wire 1 F" inst79|inst100|auto_generated|aeb_output_dffe_d_wire0w[0]~0_combout $end
$var wire 1 G" inst99|inst7~0_combout $end
$var wire 1 H" inst99|inst10~combout $end
$var wire 1 I" inst99|inst13~q $end
$var wire 1 J" inst1~combout $end
$var wire 1 K" inst79|inst2~0_combout $end
$var wire 1 L" inst19|87~combout $end
$var wire 1 M" inst19|86~0_combout $end
$var wire 1 N" inst19|85~combout $end
$var wire 1 O" inst19|84~0_combout $end
$var wire 1 P" inst19|83~combout $end
$var wire 1 Q" inst19|82~0_combout $end
$var wire 1 R" inst19|81~0_combout $end
$var wire 1 S" inst41|87~combout $end
$var wire 1 T" inst41|86~0_combout $end
$var wire 1 U" inst41|85~combout $end
$var wire 1 V" inst41|84~0_combout $end
$var wire 1 W" inst41|83~combout $end
$var wire 1 X" inst41|82~0_combout $end
$var wire 1 Y" inst41|81~0_combout $end
$var wire 1 Z" inst46|87~combout $end
$var wire 1 [" inst46|86~0_combout $end
$var wire 1 \" inst46|85~combout $end
$var wire 1 ]" inst46|84~0_combout $end
$var wire 1 ^" inst46|83~combout $end
$var wire 1 _" inst46|82~0_combout $end
$var wire 1 `" inst46|81~0_combout $end
$var wire 1 a" inst79|inst100|auto_generated|aeb_output_dffe0a [0] $end
$var wire 1 b" inst79|inst101|auto_generated|aeb_output_dffe0a [0] $end
$var wire 1 c" inst79|inst102|auto_generated|aeb_output_dffe0a [0] $end
$var wire 1 d" inst79|inst102|auto_generated|aeb_output_dffe_d_wire0w [0] $end
$var wire 1 e" inst79|inst100|auto_generated|aeb_output_dffe_d_wire0w [0] $end
$var wire 1 f" inst79|inst101|auto_generated|aeb_output_dffe_d_wire0w [0] $end
$upscope $end
$upscope $end
$enddefinitions $end
#0
$dumpvars
0!
0"
0#
1$
0%
0&
bx '
b0 (
0,
0+
0*
0)
00
0/
0.
0-
04
03
02
01
06
05
08
07
0<
0;
0:
09
0@
0?
0>
0=
0D
0C
0B
0A
0K
0J
0I
0H
0G
0F
1E
0R
0Q
0P
0O
0N
0M
1L
0Y
0X
0W
0V
0U
0T
1S
0Z
0[
0\
0]
1^
x_
1`
1a
1b
0c
xd
xe
xf
xg
xh
xi
xj
0k
0l
0m
0n
0o
0p
0q
0r
0s
0t
0u
0v
0w
0x
0y
0z
0{
0|
0}
0~
0!!
0"!
0#!
0$!
0%!
0&!
0'!
0(!
0)!
0*!
0+!
1,!
0-!
0.!
0/!
00!
01!
02!
13!
04!
05!
06!
07!
08!
09!
1:!
0;!
0<!
0=!
0>!
0?!
0@!
0A!
0B!
0C!
0D!
0E!
0F!
0G!
1H!
0I!
0J!
1K!
0L!
0M!
0N!
0O!
0P!
0Q!
0R!
0S!
0T!
0U!
0V!
0W!
0X!
0Y!
0Z!
0[!
0\!
0]!
1^!
1_!
0`!
0a!
0b!
0c!
1d!
1e!
0f!
0g!
0h!
0i!
0j!
0k!
0l!
0m!
0n!
0o!
0p!
0q!
0r!
0s!
0t!
0u!
0v!
0w!
0x!
0y!
0z!
0{!
0|!
0}!
0~!
0!"
0""
0#"
0$"
0%"
0&"
0'"
0("
0)"
0*"
0+"
0,"
0-"
0."
0/"
00"
01"
02"
03"
04"
05"
06"
07"
08"
09"
0:"
0;"
0<"
0="
0>"
0?"
0@"
0A"
0B"
0C"
0D"
0E"
0F"
0G"
0H"
0I"
0J"
0K"
1L"
0M"
0N"
0O"
0P"
0Q"
0R"
1S"
0T"
0U"
0V"
0W"
0X"
0Y"
1Z"
0["
0\"
0]"
0^"
0_"
0`"
0a"
0b"
0c"
1d"
1e"
1f"
$end
#1000
1#
1A!
1B!
1a"
1b"
1c"
1G"
1K"
1+!
1\
#2000
0#
0A!
0B!
1L!
1`!
0^!
1[!
0K!
1I!
0_!
1\!
#3000
1#
1A!
1B!
#4000
0#
0A!
0B!
1J!
0L!
1]!
0`!
#5000
1#
1A!
1B!
#6000
0#
0A!
0B!
#7000
1#
1A!
1B!
#8000
0#
0A!
0B!
#9000
1#
1A!
1B!
#10000
0#
0A!
0B!
#11000
1#
1A!
1B!
#12000
0#
0A!
0B!
#13000
1#
1A!
1B!
#14000
0#
0A!
0B!
#15000
1#
1A!
1B!
#16000
0#
0A!
0B!
#17000
1#
1A!
1B!
#18000
0#
0A!
0B!
#19000
1#
1A!
1B!
#20000
0#
0A!
0B!
#21000
1#
1A!
1B!
#22000
0#
0A!
0B!
#23000
1#
1A!
1B!
#24000
0#
0A!
0B!
#25000
1#
1A!
1B!
#26000
0#
0A!
0B!
#27000
1#
1A!
1B!
#28000
0#
0A!
0B!
#29000
1#
1A!
1B!
#30000
1!
0#
1N!
0A!
0B!
1Q!
#31000
1#
1A!
1B!
#32000
0#
0A!
0B!
1R!
1S!
0Q!
1O!
#33000
1#
1A!
1B!
#34000
0#
0A!
0B!
1P!
0R!
1T!
1l
0G"
1l!
0[!
1M!
17
1m!
0S!
1S!
0\!
#35000
1#
1A!
1B!
#36000
0#
0A!
0B!
0]!
#37000
1#
1A!
1B!
#38000
0#
0A!
0B!
#39000
1#
1A!
1B!
#40000
0#
0A!
0B!
#41000
1#
1A!
1B!
#42000
0#
0A!
0B!
#43000
1#
1A!
1B!
#44000
0#
0A!
0B!
#45000
1#
1A!
1B!
#46000
0#
0A!
0B!
#47000
1#
1A!
1B!
#48000
0#
0A!
0B!
#49000
1#
1A!
1B!
#50000
0!
0#
0N!
0A!
0B!
0O!
#51000
1#
1A!
1B!
#52000
0#
0A!
0B!
0P!
#53000
1#
1A!
1B!
#54000
0#
0A!
0B!
#55000
1#
1A!
1B!
#56000
0#
0A!
0B!
#57000
1#
1A!
1B!
#58000
0#
0A!
0B!
#59000
1#
1A!
1B!
#60000
0#
0A!
0B!
#61000
1#
1A!
1B!
#62000
0#
0A!
0B!
#63000
1#
1A!
1B!
#64000
0#
0A!
0B!
#65000
1#
1A!
1B!
#66000
0#
0A!
0B!
#67000
1#
1A!
1B!
#68000
0#
0A!
0B!
#69000
1#
1A!
1B!
#70000
0#
0A!
0B!
#71000
1#
1A!
1B!
#72000
0#
0A!
0B!
#73000
1#
1A!
1B!
#74000
0#
0A!
0B!
#75000
1#
1A!
1B!
#76000
0#
0A!
0B!
#77000
1#
1A!
1B!
#78000
0#
0A!
0B!
#79000
1#
1A!
1B!
#80000
0#
0A!
0B!
#81000
1#
1A!
1B!
#82000
0#
0A!
0B!
#83000
1#
1A!
1B!
#84000
0#
0A!
0B!
#85000
1#
1A!
1B!
#86000
0#
0A!
0B!
#87000
1#
1A!
1B!
#88000
0#
0A!
0B!
#89000
1#
1A!
1B!
#90000
0#
0A!
0B!
#91000
1#
1A!
1B!
#92000
0#
0A!
0B!
#93000
1#
1A!
1B!
#94000
0#
0A!
0B!
#95000
1#
1A!
1B!
#96000
0#
0A!
0B!
#97000
1#
1A!
1B!
#98000
0#
0A!
0B!
#99000
1#
1A!
1B!
#100000
b100 (
b110 (
b111 (
0#
1f!
1i!
1s!
0A!
0B!
19"
13"
1$"
1~!
1n!
1g!
1;"
15"
1("
1&"
1p!
1j!
1B"
1>"
1,"
1x!
1t!
#101000
1#
1A!
1B!
#102000
0#
0A!
0B!
#103000
1#
1A!
1B!
#104000
0#
0A!
0B!
#105000
1#
1A!
1B!
#106000
0#
0A!
0B!
#107000
1#
1A!
1B!
#108000
0#
0A!
0B!
#109000
1#
1A!
1B!
#110000
0#
0A!
0B!
#111000
1#
1A!
1B!
#112000
0#
0A!
0B!
#113000
1#
1A!
1B!
#114000
0#
0A!
0B!
#115000
1#
1A!
1B!
#116000
0#
0A!
0B!
#117000
1#
1A!
1B!
#118000
0#
0A!
0B!
#119000
1#
1A!
1B!
#120000
1%
0#
1U!
0A!
0B!
1X!
#121000
1#
1A!
1B!
#122000
0#
0A!
0B!
1Y!
1t
1Z
1Z!
0X!
1V!
#123000
1#
1A!
1B!
#124000
0#
0A!
0B!
1W!
1a!
0Y!
0t
1s
1""
1|!
0l!
0d!
16
0Z
0e!
0m!
1}!
1#"
1."
1)"
1!"
1-"
1'"
1%"
1x
1w
1v
1&!
1%!
1$!
1>
1?
1@
1.
1/
10
1V"
1U"
1T"
14!
15!
16!
1O
1N
1M
#125000
1#
1A!
1B!
#126000
0#
0A!
0B!
#127000
1#
1A!
1B!
#128000
0#
0A!
0B!
#129000
1#
1A!
1B!
#130000
0#
0A!
0B!
#131000
1#
1A!
1B!
#132000
0#
0A!
0B!
#133000
1#
1A!
1B!
#134000
0#
0A!
0B!
#135000
1#
1A!
1B!
#136000
0#
0A!
0B!
#137000
1#
1A!
1B!
#138000
0#
0A!
0B!
#139000
1#
1A!
1B!
#140000
0%
0#
0U!
0A!
0B!
0V!
#141000
1#
1A!
1B!
#142000
0#
0A!
0B!
0W!
#143000
1#
1A!
1B!
#144000
0#
0A!
0B!
#145000
1#
1A!
1B!
#146000
0#
0A!
0B!
#147000
1#
1A!
1B!
#148000
0#
0A!
0B!
#149000
1#
1A!
1B!
#150000
0#
0A!
0B!
#151000
1#
1A!
1B!
#152000
0#
0A!
0B!
#153000
1#
1A!
1B!
#154000
0#
0A!
0B!
#155000
1#
1A!
1B!
#156000
0#
0A!
0B!
#157000
1#
1A!
1B!
#158000
0#
0A!
0B!
#159000
1#
1A!
1B!
#160000
b11 (
b1 (
b0 (
0#
0f!
0i!
0s!
0A!
0B!
09"
03"
0$"
0~!
0n!
0g!
0;"
05"
0("
0&"
0p!
0j!
0B"
0>"
0,"
0x!
0t!
#161000
1#
1A!
1B!
#162000
0#
0A!
0B!
#163000
1#
1A!
1B!
#164000
0#
0A!
0B!
#165000
1#
1A!
1B!
#166000
0#
0A!
0B!
#167000
1#
1A!
1B!
#168000
0#
0A!
0B!
#169000
1#
1A!
1B!
#170000
b10 (
0#
1i!
0A!
0B!
1;"
15"
1("
1&"
1p!
1j!
#171000
1#
1A!
1B!
#172000
0#
0A!
0B!
#173000
1#
1A!
1B!
#174000
0#
0A!
0B!
#175000
1#
1A!
1B!
#176000
0#
0A!
0B!
#177000
1#
1A!
1B!
#178000
0#
0A!
0B!
#179000
1#
1A!
1B!
#180000
1%
0#
1U!
0A!
0B!
1X!
#181000
1#
1A!
1B!
#182000
0#
0A!
0B!
1Y!
1t
1b!
1Z
0Z!
0X!
1V!
#183000
1#
1A!
1B!
#184000
0#
0A!
0B!
1W!
0a!
0Y!
1c!
1r
0t
0s
17"
11"
0""
0|!
06
0Z
15
0}!
0#"
12"
18"
16"
1<"
1p
1!!
1C
13
1^"
1["
0Z"
0:!
1;!
1>!
1W
1T
0S
#185000
1#
1A!
1B!
#186000
0#
0A!
0B!
#187000
1#
1A!
1B!
#188000
0#
0A!
0B!
#189000
1#
1A!
1B!
#190000
0#
0A!
0B!
#191000
1#
1A!
1B!
#192000
0#
0A!
0B!
#193000
1#
1A!
1B!
#194000
0#
0A!
0B!
#195000
1#
1A!
1B!
#196000
0#
0A!
0B!
#197000
1#
1A!
1B!
#198000
0#
0A!
0B!
#199000
1#
1A!
1B!
#200000
0#
0A!
0B!
#201000
1#
1A!
1B!
#202000
0#
0A!
0B!
#203000
1#
1A!
1B!
#204000
0#
0A!
0B!
#205000
1#
1A!
1B!
#206000
0#
0A!
0B!
#207000
1#
1A!
1B!
#208000
0#
0A!
0B!
#209000
1#
1A!
1B!
#210000
0%
0#
0U!
0A!
0B!
0V!
#211000
1#
1A!
1B!
#212000
0#
0A!
0B!
0W!
#213000
1#
1A!
1B!
#214000
0#
0A!
0B!
#215000
1#
1A!
1B!
#216000
0#
0A!
0B!
#217000
1#
1A!
1B!
#218000
0#
0A!
0B!
#219000
1#
1A!
1B!
#220000
b0 (
0#
0i!
0A!
0B!
0;"
05"
0("
0&"
0p!
0j!
#221000
1#
1A!
1B!
#222000
0#
0A!
0B!
#223000
1#
1A!
1B!
#224000
0#
0A!
0B!
#225000
1#
1A!
1B!
#226000
0#
0A!
0B!
#227000
1#
1A!
1B!
#228000
0#
0A!
0B!
#229000
1#
1A!
1B!
#230000
0#
0A!
0B!
#231000
1#
1A!
1B!
#232000
0#
0A!
0B!
#233000
1#
1A!
1B!
#234000
0#
0A!
0B!
#235000
1#
1A!
1B!
#236000
0#
0A!
0B!
#237000
1#
1A!
1B!
#238000
0#
0A!
0B!
#239000
1#
1A!
1B!
#240000
0#
0A!
0B!
#241000
1#
1A!
1B!
#242000
0#
0A!
0B!
#243000
1#
1A!
1B!
#244000
0#
0A!
0B!
#245000
1#
1A!
1B!
#246000
0#
0A!
0B!
#247000
1#
1A!
1B!
#248000
0#
0A!
0B!
#249000
1#
1A!
1B!
#250000
0#
0A!
0B!
#251000
1#
1A!
1B!
#252000
0#
0A!
0B!
#253000
1#
1A!
1B!
#254000
0#
0A!
0B!
#255000
1#
1A!
1B!
#256000
0#
0A!
0B!
#257000
1#
1A!
1B!
#258000
0#
0A!
0B!
#259000
1#
1A!
1B!
#260000
0#
0A!
0B!
#261000
1#
1A!
1B!
#262000
0#
0A!
0B!
#263000
1#
1A!
1B!
#264000
0#
0A!
0B!
#265000
1#
1A!
1B!
#266000
0#
0A!
0B!
#267000
1#
1A!
1B!
#268000
0#
0A!
0B!
#269000
1#
1A!
1B!
#270000
b1000 (
b1001 (
0#
1f!
1v!
0A!
0B!
19"
13"
1$"
1~!
1n!
1g!
1D"
1@"
#271000
1#
1A!
1B!
#272000
0#
0A!
0B!
#273000
1#
1A!
1B!
#274000
0#
0A!
0B!
#275000
1#
1A!
1B!
#276000
0#
0A!
0B!
#277000
1#
1A!
1B!
#278000
0#
0A!
0B!
#279000
1#
1A!
1B!
#280000
0#
0A!
0B!
#281000
1#
1A!
1B!
#282000
0#
0A!
0B!
#283000
1#
1A!
1B!
#284000
0#
0A!
0B!
#285000
1#
1A!
1B!
#286000
0#
0A!
0B!
#287000
1#
1A!
1B!
#288000
0#
0A!
0B!
#289000
1#
1A!
1B!
#290000
1%
0#
1U!
0A!
0B!
1X!
#291000
1#
1A!
1B!
#292000
0#
0A!
0B!
1Y!
1t
0b!
1Z
0X!
1V!
#293000
1#
1A!
1B!
#294000
0#
0A!
0B!
1W!
0Y!
0c!
0r
0t
07"
01"
1l!
1d!
0Z
05
1e!
1m!
02"
08"
1w!
1h!
1z!
1o!
1*!
1'!
1|
1y
1)
1,
19
1<
0L"
1O"
1N"
1.!
1/!
0,!
0E
1H
1G
#295000
1#
1A!
1B!
#296000
0#
0A!
0B!
#297000
1#
1A!
1B!
#298000
0#
0A!
0B!
#299000
1#
1A!
1B!
#300000
0#
0A!
0B!
#301000
1#
1A!
1B!
#302000
0#
0A!
0B!
#303000
1#
1A!
1B!
#304000
0#
0A!
0B!
#305000
1#
1A!
1B!
#306000
0#
0A!
0B!
#307000
1#
1A!
1B!
#308000
0#
0A!
0B!
#309000
1#
1A!
1B!
#310000
0#
0A!
0B!
#311000
1#
1A!
1B!
#312000
0#
0A!
0B!
#313000
1#
1A!
1B!
#314000
0#
0A!
0B!
#315000
1#
1A!
1B!
#316000
0#
0A!
0B!
#317000
1#
1A!
1B!
#318000
0#
0A!
0B!
#319000
1#
1A!
1B!
#320000
0#
0A!
0B!
#321000
1#
1A!
1B!
#322000
0#
0A!
0B!
#323000
1#
1A!
1B!
#324000
0#
0A!
0B!
#325000
1#
1A!
1B!
#326000
0#
0A!
0B!
#327000
1#
1A!
1B!
#328000
0#
0A!
0B!
#329000
1#
1A!
1B!
#330000
0%
0#
0U!
0A!
0B!
0V!
#331000
1#
1A!
1B!
#332000
0#
0A!
0B!
0W!
#333000
1#
1A!
1B!
#334000
0#
0A!
0B!
#335000
1#
1A!
1B!
#336000
0#
0A!
0B!
#337000
1#
1A!
1B!
#338000
0#
0A!
0B!
#339000
1#
1A!
1B!
#340000
0#
0A!
0B!
#341000
1#
1A!
1B!
#342000
0#
0A!
0B!
#343000
1#
1A!
1B!
#344000
0#
0A!
0B!
#345000
1#
1A!
1B!
#346000
0#
0A!
0B!
#347000
1#
1A!
1B!
#348000
0#
0A!
0B!
#349000
1#
1A!
1B!
#350000
0#
0A!
0B!
#351000
1#
1A!
1B!
#352000
0#
0A!
0B!
#353000
1#
1A!
1B!
#354000
0#
0A!
0B!
#355000
1#
1A!
1B!
#356000
0#
0A!
0B!
#357000
1#
1A!
1B!
#358000
0#
0A!
0B!
#359000
1#
1A!
1B!
#360000
1"
b1 (
b0 (
0#
1C!
0f!
0v!
0A!
0B!
1F!
09"
03"
0$"
0~!
0n!
0g!
0D"
0@"
#361000
1#
1A!
1B!
#362000
0#
0A!
0B!
1G!
0M!
0F!
1D!
0S!
#363000
1#
1A!
1B!
#364000
0#
0A!
0B!
1E!
0G!
0T!
0l
1G"
0l!
1^!
07
0m!
1_!
#365000
1#
1A!
1B!
#366000
0#
0A!
0B!
1`!
0^!
1[!
0_!
1\!
0h!
0w!
0%"
0'"
0-"
0<"
0p
0v
0w
0x
0y
0|
1r!
1{!
1*"
10"
1="
0,
0)
00
0/
0.
03
0O"
0N"
1L"
0V"
0U"
0T"
0^"
0["
1Z"
1:!
0;!
0>!
04!
05!
06!
1,!
0.!
0/!
0H
0G
1E
0O
0N
0M
0W
0T
1S
0d"
0f"
0e"
#367000
1#
1A!
1B!
0a"
0b"
0c"
0G"
0K"
0+!
0\
#368000
0#
0A!
0B!
1]!
0`!
#369000
1#
1A!
1B!
#370000
0#
0A!
0B!
#371000
1#
1A!
1B!
#372000
0#
0A!
0B!
#373000
1#
1A!
1B!
#374000
0#
0A!
0B!
#375000
1#
1A!
1B!
#376000
0#
0A!
0B!
#377000
1#
1A!
1B!
#378000
0#
0A!
0B!
#379000
1#
1A!
1B!
#380000
0#
0A!
0B!
#381000
1#
1A!
1B!
#382000
0#
0A!
0B!
#383000
1#
1A!
1B!
#384000
0#
0A!
0B!
#385000
1#
1A!
1B!
#386000
0#
0A!
0B!
#387000
1#
1A!
1B!
#388000
0#
0A!
0B!
#389000
1#
1A!
1B!
#390000
0#
0A!
0B!
#391000
1#
1A!
1B!
#392000
0#
0A!
0B!
#393000
1#
1A!
1B!
#394000
0#
0A!
0B!
#395000
1#
1A!
1B!
#396000
0#
0A!
0B!
#397000
1#
1A!
1B!
#398000
0#
0A!
0B!
#399000
1#
1A!
1B!
#400000
0"
0#
0C!
0A!
0B!
0D!
#401000
1#
1A!
1B!
#402000
0#
0A!
0B!
0E!
#403000
1#
1A!
1B!
#404000
0#
0A!
0B!
#405000
1#
1A!
1B!
#406000
0#
0A!
0B!
#407000
1#
1A!
1B!
#408000
0#
0A!
0B!
#409000
1#
1A!
1B!
#410000
0#
0A!
0B!
#411000
1#
1A!
1B!
#412000
0#
0A!
0B!
#413000
1#
1A!
1B!
#414000
0#
0A!
0B!
#415000
1#
1A!
1B!
#416000
0#
0A!
0B!
#417000
1#
1A!
1B!
#418000
0#
0A!
0B!
#419000
1#
1A!
1B!
#420000
0#
0A!
0B!
#421000
1#
1A!
1B!
#422000
0#
0A!
0B!
#423000
1#
1A!
1B!
#424000
0#
0A!
0B!
#425000
1#
1A!
1B!
#426000
0#
0A!
0B!
#427000
1#
1A!
1B!
#428000
0#
0A!
0B!
#429000
1#
1A!
1B!
#430000
0#
0A!
0B!
#431000
1#
1A!
1B!
#432000
0#
0A!
0B!
#433000
1#
1A!
1B!
#434000
0#
0A!
0B!
#435000
1#
1A!
1B!
#436000
0#
0A!
0B!
#437000
1#
1A!
1B!
#438000
0#
0A!
0B!
#439000
1#
1A!
1B!
#440000
b100 (
b110 (
b111 (
0#
1f!
1i!
1s!
0A!
0B!
19"
13"
1$"
1~!
1n!
1g!
1;"
15"
1("
1&"
1p!
1j!
1B"
1>"
1,"
1x!
1t!
#441000
1#
1A!
1B!
#442000
0#
0A!
0B!
#443000
1#
1A!
1B!
#444000
0#
0A!
0B!
#445000
1#
1A!
1B!
#446000
0#
0A!
0B!
#447000
1#
1A!
1B!
#448000
0#
0A!
0B!
#449000
1#
1A!
1B!
#450000
1%
0#
1U!
0A!
0B!
1X!
#451000
1#
1A!
1B!
#452000
0#
0A!
0B!
1Y!
1t
1Z
1Z!
0X!
1V!
#453000
1#
1A!
1B!
