quartus/simulation/qsim/Cofre.msim.vcd
$comment
	File created using the following command:
		vcd file Cofre.msim.vcd -direction
$end
$date
	Sun May 21 12:09:36 2023
$end
$version
	ModelSim Version 2020.1
$end
$timescale
	1ps
$end

$scope module Cofre_vlg_vec_tst $end
$var reg 1 ! BM $end
$var reg 1 " C $end
$var reg 1 # CLOCK $end
$var reg 1 $ CT $end
$var reg 1 % ENTER $end
$var reg 1 & RESET $end
$var reg 7 ' TE [6:0] $end
$var reg 4 ( TeTemp [3:0] $end
$var wire 1 ) D0 [3] $end
$var wire 1 * D0 [2] $end
$var wire 1 + D0 [1] $end
$var wire 1 , D0 [0] $end
$var wire 1 - D1 [3] $end
$var wire 1 . D1 [2] $end
$var wire 1 / D1 [1] $end
$var wire 1 0 D1 [0] $end
$var wire 1 1 D2 [3] $end
$var wire 1 2 D2 [2] $end
$var wire 1 3 D2 [1] $end
$var wire 1 4 D2 [0] $end
$var wire 1 5 I [1] $end
$var wire 1 6 I [0] $end
$var wire 1 7 M [1] $end
$var wire 1 8 M [0] $end
$var wire 1 9 MM0 [3] $end
$var wire 1 : MM0 [2] $end
$var wire 1 ; MM0 [1] $end
$var wire 1 < MM0 [0] $end
$var wire 1 = MM1 [3] $end
$var wire 1 > MM1 [2] $end
$var wire 1 ? MM1 [1] $end
$var wire 1 @ MM1 [0] $end
$var wire 1 A MM2 [3] $end
$var wire 1 B MM2 [2] $end
$var wire 1 C MM2 [1] $end
$var wire 1 D MM2 [0] $end
$var wire 1 E N0 [6] $end
$var wire 1 F N0 [5] $end
$var wire 1 G N0 [4] $end
$var wire 1 H N0 [3] $end
$var wire 1 I N0 [2] $end
$var wire 1 J N0 [1] $end
$var wire 1 K N0 [0] $end
$var wire 1 L N1 [6] $end
$var wire 1 M N1 [5] $end
$var wire 1 N N1 [4] $end
$var wire 1 O N1 [3] $end
$var wire 1 P N1 [2] $end
$var wire 1 Q N1 [1] $end
$var wire 1 R N1 [0] $end
$var wire 1 S N2 [6] $end
$var wire 1 T N2 [5] $end
$var wire 1 U N2 [4] $end
$var wire 1 V N2 [3] $end
$var wire 1 W N2 [2] $end
$var wire 1 X N2 [1] $end
$var wire 1 Y N2 [0] $end
$var wire 1 Z N3 [6] $end
$var wire 1 [ N3 [5] $end
$var wire 1 \ N3 [4] $end
$var wire 1 ] N3 [3] $end
$var wire 1 ^ N3 [2] $end
$var wire 1 _ N3 [1] $end
$var wire 1 ` N3 [0] $end
$var wire 1 a PENTER $end
$var wire 1 b S $end
$var wire 1 c SINAL_CORRETA $end

$scope module i1 $end
$var wire 1 d gnd $end
$var wire 1 e vcc $end
$var wire 1 f unknown $end
$var tri1 1 g devclrn $end
$var tri1 1 h devpor $end
$var tri1 1 i devoe $end
$var wire 1 j RESET~input_o $end
$var wire 1 k TE[6]~input_o $end
$var wire 1 l TE[5]~input_o $end
$var wire 1 m TE[4]~input_o $end
$var wire 1 n TE[3]~input_o $end
$var wire 1 o TE[2]~input_o $end
$var wire 1 p TE[1]~input_o $end
$var wire 1 q TE[0]~input_o $end
$var wire 1 r S~output_o $end
$var wire 1 s M[1]~output_o $end
$var wire 1 t M[0]~output_o $end
$var wire 1 u D2[3]~output_o $end
$var wire 1 v D2[2]~output_o $end
$var wire 1 w D2[1]~output_o $end
$var wire 1 x D2[0]~output_o $end
$var wire 1 y I[1]~output_o $end
$var wire 1 z I[0]~output_o $end
$var wire 1 { PENTER~output_o $end
$var wire 1 | D1[3]~output_o $end
$var wire 1 } D1[2]~output_o $end
$var wire 1 ~ D1[1]~output_o $end
$var wire 1 !! D1[0]~output_o $end
$var wire 1 "! D0[3]~output_o $end
$var wire 1 #! D0[2]~output_o $end
$var wire 1 $! D0[1]~output_o $end
$var wire 1 %! D0[0]~output_o $end
$var wire 1 &! MM2[3]~output_o $end
$var wire 1 '! MM2[2]~output_o $end
$var wire 1 (! MM2[1]~output_o $end
$var wire 1 )! MM2[0]~output_o $end
$var wire 1 *! MM1[3]~output_o $end
$var wire 1 +! MM1[2]~output_o $end
$var wire 1 ,! MM1[1]~output_o $end
$var wire 1 -! MM1[0]~output_o $end
$var wire 1 .! MM0[3]~output_o $end
$var wire 1 /! MM0[2]~output_o $end
$var wire 1 0! MM0[1]~output_o $end
$var wire 1 1! MM0[0]~output_o $end
$var wire 1 2! SINAL_CORRETA~output_o $end
$var wire 1 3! N0[6]~output_o $end
$var wire 1 4! N0[5]~output_o $end
$var wire 1 5! N0[4]~output_o $end
$var wire 1 6! N0[3]~output_o $end
$var wire 1 7! N0[2]~output_o $end
$var wire 1 8! N0[1]~output_o $end
$var wire 1 9! N0[0]~output_o $end
$var wire 1 :! N1[6]~output_o $end
$var wire 1 ;! N1[5]~output_o $end
$var wire 1 <! N1[4]~output_o $end
$var wire 1 =! N1[3]~output_o $end
$var wire 1 >! N1[2]~output_o $end
$var wire 1 ?! N1[1]~output_o $end
$var wire 1 @! N1[0]~output_o $end
$var wire 1 A! N2[6]~output_o $end
$var wire 1 B! N2[5]~output_o $end
$var wire 1 C! N2[4]~output_o $end
$var wire 1 D! N2[3]~output_o $end
$var wire 1 E! N2[2]~output_o $end
$var wire 1 F! N2[1]~output_o $end
$var wire 1 G! N2[0]~output_o $end
$var wire 1 H! N3[6]~output_o $end
$var wire 1 I! N3[5]~output_o $end
$var wire 1 J! N3[4]~output_o $end
$var wire 1 K! N3[3]~output_o $end
$var wire 1 L! N3[2]~output_o $end
$var wire 1 M! N3[1]~output_o $end
$var wire 1 N! N3[0]~output_o $end
$var wire 1 O! CLOCK~input_o $end
$var wire 1 P! CLOCK~inputclkctrl_outclk $end
$var wire 1 Q! ENTER~input_o $end
$var wire 1 R! inst6|inst7~combout $end
$var wire 1 S! inst6|inst~q $end
$var wire 1 T! inst6|inst8~0_combout $end
$var wire 1 U! inst6|inst1~q $end
$var wire 1 V! inst10|instI~0_combout $end
$var wire 1 W! inst10|instI~feeder_combout $end
$var wire 1 X! inst100|inst7~combout $end
$var wire 1 Y! inst100|inst~feeder_combout $end
$var wire 1 Z! inst100|inst~q $end
$var wire 1 [! inst100|inst8~0_combout $end
$var wire 1 \! inst100|inst1~feeder_combout $end
$var wire 1 ]! inst100|inst1~q $end
$var wire 1 ^! inst10|instI~q $end
$var wire 1 _! inst10|inst10~0_combout $end
$var wire 1 `! inst10|instI1~q $end
$var wire 1 a! inst31~combout $end
$var wire 1 b! inst31~clkctrl_outclk $end
$var wire 1 c! TeTemp[3]~input_o $end
$var wire 1 d! inst9|inst10~feeder_combout $end
$var wire 1 e! inst9|inst10~q $end
$var wire 1 f! TeTemp[2]~input_o $end
$var wire 1 g! inst9|inst2~q $end
$var wire 1 h! inst21~combout $end
$var wire 1 i! inst21~clkctrl_outclk $end
$var wire 1 j! inst3|inst2~q $end
$var wire 1 k! inst3|inst10~feeder_combout $end
$var wire 1 l! inst3|inst10~q $end
$var wire 1 m! inst79|inst101|auto_generated|aeb_output_dffe_d_wire0w[0]~0_combout $end
$var wire 1 n! TeTemp[0]~input_o $end
$var wire 1 o! inst9|inst7~feeder_combout $end
$var wire 1 p! inst9|inst7~q $end
$var wire 1 q! TeTemp[1]~input_o $end
$var wire 1 r! inst9|inst9~feeder_combout $end
$var wire 1 s! inst9|inst9~q $end
$var wire 1 t! inst3|inst9~feeder_combout $end
$var wire 1 u! inst3|inst9~q $end
$var wire 1 v! inst3|inst7~feeder_combout $end
$var wire 1 w! inst3|inst7~q $end
$var wire 1 x! inst79|inst101|auto_generated|aeb_output_dffe_d_wire0w[0]~1_combout $end
$var wire 1 y! inst22~combout $end
$var wire 1 z! inst22~clkctrl_outclk $end
$var wire 1 {! inst3|inst11~feeder_combout $end
$var wire 1 |! inst3|inst11~q $end
$var wire 1 }! inst3|inst12~feeder_combout $end
$var wire 1 ~! inst3|inst12~q $end
$var wire 1 !" inst32~combout $end
$var wire 1 "" inst32~clkctrl_outclk $end
$var wire 1 #" inst9|inst11~feeder_combout $end
$var wire 1 $" inst9|inst11~q $end
$var wire 1 %" inst9|inst12~q $end
$var wire 1 &" inst79|inst100|auto_generated|aeb_output_dffe_d_wire0w[0]~1_combout $end
$var wire 1 '" inst3|inst13~feeder_combout $end
$var wire 1 (" inst3|inst13~q $end
$var wire 1 )" inst3|inst3~q $end
$var wire 1 *" inst9|inst3~feeder_combout $end
$var wire 1 +" inst9|inst3~q $end
$var wire 1 ," inst9|inst13~feeder_combout $end
$var wire 1 -" inst9|inst13~q $end
$var wire 1 ." inst79|inst100|auto_generated|aeb_output_dffe_d_wire0w[0]~0_combout $end
$var wire 1 /" inst79|inst2~0_combout $end
$var wire 1 0" C~input_o $end
$var wire 1 1" inst8|inst7~combout $end
$var wire 1 2" inst8|inst~q $end
$var wire 1 3" inst8|inst8~0_combout $end
$var wire 1 4" inst8|inst1~q $end
$var wire 1 5" CT~input_o $end
$var wire 1 6" inst4|inst7~combout $end
$var wire 1 7" inst4|inst~q $end
$var wire 1 8" inst4|inst8~0_combout $end
$var wire 1 9" inst4|inst1~q $end
$var wire 1 :" inst99|inst6~0_combout $end
$var wire 1 ;" inst99|inst10~combout $end
$var wire 1 <" inst99|inst13~q $end
$var wire 1 =" inst~combout $end
$var wire 1 >" inst~clkctrl_outclk $end
$var wire 1 ?" inst3|inst~feeder_combout $end
$var wire 1 @" inst3|inst~q $end
$var wire 1 A" inst3|inst40~feeder_combout $end
$var wire 1 B" inst3|inst40~q $end
$var wire 1 C" inst30~combout $end
$var wire 1 D" inst30~clkctrl_outclk $end
$var wire 1 E" inst9|inst~feeder_combout $end
$var wire 1 F" inst9|inst~q $end
$var wire 1 G" inst9|inst40~q $end
$var wire 1 H" inst79|inst102|auto_generated|aeb_output_dffe_d_wire0w[0]~1_combout $end
$var wire 1 I" inst3|inst1~q $end
$var wire 1 J" inst3|inst8~feeder_combout $end
$var wire 1 K" inst3|inst8~q $end
$var wire 1 L" inst9|inst1~q $end
$var wire 1 M" inst9|inst8~q $end
$var wire 1 N" inst79|inst102|auto_generated|aeb_output_dffe_d_wire0w[0]~0_combout $end
$var wire 1 O" BM~input_o $end
$var wire 1 P" inst5|inst7~combout $end
$var wire 1 Q" inst5|inst~q $end
$var wire 1 R" inst5|inst8~0_combout $end
$var wire 1 S" inst5|inst1~q $end
$var wire 1 T" inst99|inst7~0_combout $end
$var wire 1 U" inst99|inst7~combout $end
$var wire 1 V" inst99|inst8~0_combout $end
$var wire 1 W" inst99|inst9~combout $end
$var wire 1 X" inst99|inst15~q $end
$var wire 1 Y" inst1~combout $end
$var wire 1 Z" inst41|87~combout $end
$var wire 1 [" inst41|86~0_combout $end
$var wire 1 \" inst41|85~combout $end
$var wire 1 ]" inst41|84~0_combout $end
$var wire 1 ^" inst41|83~combout $end
$var wire 1 _" inst41|82~0_combout $end
$var wire 1 `" inst41|81~0_combout $end
$var wire 1 a" inst46|87~combout $end
$var wire 1 b" inst46|86~0_combout $end
$var wire 1 c" inst46|85~combout $end
$var wire 1 d" inst46|84~0_combout $end
$var wire 1 e" inst46|83~combout $end
$var wire 1 f" inst46|82~0_combout $end
$var wire 1 g" inst46|81~0_combout $end
$var wire 1 h" inst19|87~combout $end
$var wire 1 i" inst19|86~0_combout $end
$var wire 1 j" inst19|85~combout $end
$var wire 1 k" inst19|84~0_combout $end
$var wire 1 l" inst19|83~combout $end
$var wire 1 m" inst19|82~0_combout $end
$var wire 1 n" inst19|81~0_combout $end
$var wire 1 o" inst79|inst100|auto_generated|aeb_output_dffe0a [0] $end
$var wire 1 p" inst79|inst100|auto_generated|aeb_output_dffe_d_wire0w [0] $end
$var wire 1 q" inst79|inst101|auto_generated|aeb_output_dffe0a [0] $end
$var wire 1 r" inst79|inst102|auto_generated|aeb_output_dffe0a [0] $end
$var wire 1 s" inst79|inst101|auto_generated|aeb_output_dffe_d_wire0w [0] $end
$var wire 1 t" inst79|inst102|auto_generated|aeb_output_dffe_d_wire0w [0] $end
$upscope $end
$upscope $end
$enddefinitions $end
#0
$dumpvars
0!
0"
0#
1$
0%
0&
bx '
b0 (
0,
0+
0*
0)
00
0/
0.
0-
04
03
02
01
06
05
08
07
0<
0;
0:
09
0@
0?
0>
0=
0D
0C
0B
0A
0K
0J
0I
0H
0G
0F
1E
0R
0Q
0P
0O
0N
0M
1L
0Y
0X
0W
0V
0U
0T
1S
1`
0_
0^
1]
1\
1[
1Z
0a
0b
0c
0d
1e
xf
1g
1h
1i
0j
xk
xl
xm
xn
xo
xp
xq
0r
0s
0t
0u
0v
0w
0x
0y
0z
0{
0|
0}
0~
0!!
0"!
0#!
0$!
0%!
0&!
0'!
0(!
0)!
0*!
0+!
0,!
0-!
0.!
0/!
00!
01!
02!
13!
04!
05!
06!
07!
08!
09!
1:!
0;!
0<!
0=!
0>!
0?!
0@!
1A!
0B!
0C!
0D!
0E!
0F!
0G!
1H!
1I!
1J!
1K!
0L!
0M!
1N!
0O!
0P!
0Q!
0R!
0S!
0T!
0U!
0V!
0W!
0X!
0Y!
0Z!
1[!
1\!
0]!
0^!
0_!
0`!
0a!
0b!
0c!
0d!
0e!
0f!
0g!
0h!
0i!
0j!
0k!
0l!
0m!
0n!
0o!
0p!
0q!
0r!
0s!
0t!
0u!
0v!
0w!
0x!
0y!
0z!
0{!
0|!
0}!
0~!
0!"
0""
0#"
0$"
0%"
0&"
0'"
0("
0)"
0*"
0+"
0,"
0-"
0."
0/"
00"
01"
02"
03"
04"
15"
06"
07"
18"
09"
0:"
0;"
0<"
0="
0>"
0?"
0@"
0A"
0B"
1C"
1D"
0E"
0F"
0G"
0H"
0I"
0J"
0K"
0L"
0M"
0N"
0O"
0P"
0Q"
0R"
0S"
0T"
0U"
0V"
0W"
0X"
0Y"
1Z"
0["
0\"
0]"
0^"
0_"
0`"
1a"
0b"
0c"
0d"
0e"
0f"
0g"
1h"
0i"
0j"
0k"
0l"
0m"
0n"
0o"
1p"
0q"
0r"
1s"
1t"
$end
#1000
1#
1O!
1P!
1r"
1o"
1q"
1/"
12!
1c
#2000
0#
0O!
0P!
1]!
19"
0[!
1X!
08"
16"
0\!
1Y!
#3000
1#
1O!
1P!
#4000
0#
0O!
0P!
1Z!
0]!
17"
09"
#5000
1#
1O!
1P!
#6000
0#
0O!
0P!
#7000
1#
1O!
1P!
#8000
0#
0O!
0P!
#9000
1#
1O!
1P!
#10000
0#
0O!
0P!
#11000
1#
1O!
1P!
#12000
0#
0O!
0P!
#13000
1#
1O!
1P!
#14000
0#
0O!
0P!
#15000
1#
1O!
1P!
#16000
0#
0O!
0P!
#17000
1#
1O!
1P!
#18000
0#
0O!
0P!
#19000
1#
1O!
1P!
#20000
1"
0#
10"
0O!
0P!
13"
#21000
1#
1O!
1P!
#22000
0#
0O!
0P!
14"
1;"
03"
11"
#23000
1#
1O!
1P!
#24000
0#
0O!
0P!
12"
04"
1<"
0H!
1t
1:"
0X!
18
0Z
0;"
1W"
1;"
0Y!
#25000
1#
1O!
1P!
#26000
0#
0O!
0P!
0Z!
1X"
0N!
0J!
0I!
1s
17
0[
0\
0`
1Y"
1r
1b
#27000
1#
1O!
1P!
#28000
0#
0O!
0P!
#29000
1#
1O!
1P!
#30000
0#
0O!
0P!
#31000
1#
1O!
1P!
#32000
0#
0O!
0P!
#33000
1#
1O!
1P!
#34000
0#
0O!
0P!
#35000
1#
1O!
1P!
#36000
0#
0O!
0P!
#37000
1#
1O!
1P!
#38000
0#
0O!
0P!
#39000
1#
1O!
1P!
#40000
0"
0#
00"
0O!
0P!
01"
#41000
1#
1O!
1P!
#42000
0#
0O!
0P!
02"
#43000
1#
1O!
1P!
#44000
0#
0O!
0P!
#45000
1#
1O!
1P!
#46000
0#
0O!
0P!
#47000
1#
1O!
1P!
#48000
0#
0O!
0P!
#49000
1#
1O!
1P!
#50000
0#
0O!
0P!
#51000
1#
1O!
1P!
#52000
0#
0O!
0P!
#53000
1#
1O!
1P!
#54000
0#
0O!
0P!
#55000
1#
1O!
1P!
#56000
0#
0O!
0P!
#57000
1#
1O!
1P!
#58000
0#
0O!
0P!
#59000
1#
1O!
1P!
#60000
b100 (
b101 (
0#
1n!
1f!
0O!
0P!
1E"
1?"
1#"
1{!
1v!
1o!
1*"
#61000
1#
1O!
1P!
#62000
0#
0O!
0P!
#63000
1#
1O!
1P!
#64000
0#
0O!
0P!
#65000
1#
1O!
1P!
#66000
0#
0O!
0P!
#67000
1#
1O!
1P!
#68000
0#
0O!
0P!
#69000
1#
1O!
1P!
#70000
1%
0#
1Q!
0O!
0P!
1T!
#71000
1#
1O!
1P!
#72000
0#
0O!
0P!
1U!
1{
1a
0T!
1R!
#73000
1#
1O!
1P!
#74000
0#
0O!
0P!
1S!
0U!
0{
0a
#75000
1#
1O!
1P!
#76000
0#
0O!
0P!
#77000
1#
1O!
1P!
#78000
0#
0O!
0P!
#79000
1#
1O!
1P!
#80000
0$
0%
0#
05"
0Q!
0O!
0P!
06"
0R!
#81000
1#
1O!
1P!
#82000
0#
0O!
0P!
0S!
07"
#83000
1#
1O!
1P!
#84000
0#
0O!
0P!
#85000
1#
1O!
1P!
#86000
0#
0O!
0P!
#87000
1#
1O!
1P!
#88000
0#
0O!
0P!
#89000
1#
1O!
1P!
#90000
b111 (
b11 (
b10 (
0#
0n!
1q!
0f!
0O!
0P!
0E"
0?"
0#"
0{!
0v!
0o!
1A"
1}!
1t!
1r!
0*"
#91000
1#
1O!
1P!
#92000
0#
0O!
0P!
#93000
1#
1O!
1P!
#94000
0#
0O!
0P!
#95000
1#
1O!
1P!
#96000
0#
0O!
0P!
#97000
1#
1O!
1P!
#98000
0#
0O!
0P!
#99000
1#
1O!
1P!
#100000
1%
0#
1Q!
0O!
0P!
1T!
#101000
1#
1O!
1P!
#102000
0#
0O!
0P!
1U!
1{
1a
0T!
1R!
#103000
1#
1O!
1P!
#104000
0#
0O!
0P!
1S!
0U!
0{
0a
#105000
1#
1O!
1P!
#106000
0#
0O!
0P!
#107000
1#
1O!
1P!
#108000
0#
0O!
0P!
#109000
1#
1O!
1P!
#110000
b0 (
0%
0#
0q!
0Q!
0O!
0P!
0A"
0}!
0t!
0r!
0R!
#111000
1#
1O!
1P!
#112000
0#
0O!
0P!
0S!
#113000
1#
1O!
1P!
#114000
0#
0O!
0P!
#115000
1#
1O!
1P!
#116000
0#
0O!
0P!
#117000
1#
1O!
1P!
#118000
0#
0O!
0P!
#119000
1#
1O!
1P!
#120000
0#
0O!
0P!
#121000
1#
1O!
1P!
#122000
0#
0O!
0P!
#123000
1#
1O!
1P!
#124000
0#
0O!
0P!
#125000
1#
1O!
1P!
#126000
0#
0O!
0P!
#127000
1#
1O!
1P!
#128000
0#
0O!
0P!
#129000
1#
1O!
1P!
#130000
0#
0O!
0P!
#131000
1#
1O!
1P!
#132000
0#
0O!
0P!
#133000
1#
1O!
1P!
#134000
0#
0O!
0P!
#135000
1#
1O!
1P!
#136000
0#
0O!
0P!
#137000
1#
1O!
1P!
#138000
0#
0O!
0P!
#139000
1#
1O!
1P!
#140000
1$
0#
15"
0O!
0P!
18"
#141000
1#
1O!
1P!
#142000
0#
0O!
0P!
19"
0:"
08"
16"
0W"
0;"
#143000
1#
1O!
1P!
#144000
0#
0O!
0P!
17"
09"
0<"
0X"
1N!
1J!
1I!
1H!
0s
0t
1[!
08
07
1Z
1[
1\
1`
0Y"
0r
0b
1\!
#145000
1#
1O!
1P!
#146000
0#
0O!
0P!
1]!
0[!
1X!
0\!
1Y!
#147000
1#
1O!
1P!
#148000
0#
0O!
0P!
1Z!
0]!
#149000
1#
1O!
1P!
#150000
0#
0O!
0P!
#151000
1#
1O!
1P!
#152000
0#
0O!
0P!
#153000
1#
1O!
1P!
#154000
0#
0O!
0P!
#155000
1#
1O!
1P!
#156000
0#
0O!
0P!
#157000
1#
1O!
1P!
#158000
0#
0O!
0P!
#159000
1#
1O!
1P!
#160000
0#
0O!
0P!
#161000
1#
1O!
1P!
#162000
0#
0O!
0P!
#163000
1#
1O!
1P!
#164000
0#
0O!
0P!
#165000
1#
1O!
1P!
#166000
0#
0O!
0P!
#167000
1#
1O!
1P!
#168000
0#
0O!
0P!
#169000
1#
1O!
1P!
#170000
0#
0O!
0P!
#171000
1#
1O!
1P!
#172000
0#
0O!
0P!
#173000
1#
1O!
1P!
#174000
0#
0O!
0P!
#175000
1#
1O!
1P!
#176000
0#
0O!
0P!
#177000
1#
1O!
1P!
#178000
0#
0O!
0P!
#179000
1#
1O!
1P!
#180000
0#
0O!
0P!
#181000
1#
1O!
1P!
#182000
0#
0O!
0P!
#183000
1#
1O!
1P!
#184000
0#
0O!
0P!
#185000
1#
1O!
1P!
#186000
0#
0O!
0P!
#187000
1#
1O!
1P!
#188000
0#
0O!
0P!
#189000
1#
1O!
1P!
#190000
0#
0O!
0P!
#191000
1#
1O!
1P!
#192000
0#
0O!
0P!
#193000
1#
1O!
1P!
#194000
0#
0O!
0P!
#195000
1#
1O!
1P!
#196000
0#
0O!
0P!
#197000
1#
1O!
1P!
#198000
0#
0O!
0P!
#199000
1#
1O!
1P!
#200000
1!
0#
1O"
0O!
0P!
1R"
#201000
1#
1O!
1P!
#202000
0#
0O!
0P!
1S"
1T"
0R"
1P"
1U"
1W"
#203000
1#
1O!
1P!
#204000
0#
0O!
0P!
1Q"
0S"
1X"
0N!
0J!
0I!
1s
0T"
1="
0X!
17
0[
0\
0`
1>"
1V"
0K!
1L!
1M!
0U"
1_
1^
0]
0Y!
#205000
1#
1O!
1P!
#206000
0#
0O!
0P!
0Z!
#207000
1#
1O!
1P!
#208000
0#
0O!
0P!
#209000
1#
1O!
1P!
#210000
0#
0O!
0P!
#211000
1#
1O!
1P!
#212000
0#
0O!
0P!
#213000
1#
1O!
1P!
#214000
0#
0O!
0P!
#215000
1#
1O!
1P!
#216000
0#
0O!
0P!
#217000
1#
1O!
1P!
#218000
0#
0O!
0P!
#219000
1#
1O!
1P!
#220000
0!
0#
0O"
0O!
0P!
0P"
#221000
1#
1O!
1P!
#222000
0#
0O!
0P!
0Q"
#223000
1#
1O!
1P!
#224000
0#
0O!
0P!
#225000
1#
1O!
1P!
#226000
0#
0O!
0P!
#227000
1#
1O!
1P!
#228000
0#
0O!
0P!
#229000
1#
1O!
1P!
#230000
0#
0O!
0P!
#231000
1#
1O!
1P!
#232000
0#
0O!
0P!
#233000
1#
1O!
1P!
#234000
0#
0O!
0P!
#235000
1#
1O!
1P!
#236000
0#
0O!
0P!
#237000
1#
1O!
1P!
#238000
0#
0O!
0P!
#239000
1#
1O!
1P!
#240000
0#
0O!
0P!
#241000
1#
1O!
1P!
#242000
0#
0O!
0P!
#243000
1#
1O!
1P!
#244000
0#
0O!
0P!
#245000
1#
1O!
1P!
#246000
0#
0O!
0P!
#247000
1#
1O!
1P!
#248000
0#
0O!
0P!
#249000
1#
1O!
1P!
#250000
0#
0O!
0P!
#251000
1#
1O!
1P!
#252000
0#
0O!
0P!
#253000
1#
1O!
1P!
#254000
0#
0O!
0P!
#255000
1#
1O!
1P!
#256000
0#
0O!
0P!
#257000
1#
1O!
1P!
#258000
0#
0O!
0P!
#259000
1#
1O!
1P!
#260000
b1 (
0#
1n!
0O!
0P!
1E"
1?"
1#"
1{!
1v!
1o!
#261000
1#
1O!
1P!
#262000
0#
0O!
0P!
#263000
1#
1O!
1P!
#264000
0#
0O!
0P!
#265000
1#
1O!
1P!
#266000
0#
0O!
0P!
#267000
1#
1O!
1P!
#268000
0#
0O!
0P!
#269000
1#
1O!
1P!
#270000
1%
0#
1Q!
0O!
0P!
1T!
#271000
1#
1O!
1P!
#272000
0#
0O!
0P!
1U!
1{
1a
1_!
0T!
1R!
#273000
1#
1O!
1P!
#274000
0#
0O!
0P!
1S!
1`!
0U!
0{
1z
0C"
0="
1h!
1a!
16
0a
1b!
1i!
0>"
0D"
1p!
1w!
1-!
1!!
10
1@
1`"
1]"
1\"
1["
14!
15!
16!
19!
1K
1H
1G
1F
#275000
1#
1O!
1P!
#276000
0#
0O!
0P!
#277000
1#
1O!
1P!
#278000
0#
0O!
0P!
#279000
1#
1O!
1P!
#280000
0%
0#
0Q!
0O!
0P!
0R!
#281000
1#
1O!
1P!
#282000
0#
0O!
0P!
0S!
#283000
1#
1O!
1P!
#284000
0#
0O!
0P!
#285000
1#
1O!
1P!
#286000
0#
0O!
0P!
#287000
1#
1O!
1P!
#288000
0#
0O!
0P!
#289000
1#
1O!
1P!
#290000
0#
0O!
0P!
#291000
1#
1O!
1P!
#292000
0#
0O!
0P!
#293000
1#
1O!
1P!
#294000
0#
0O!
0P!
#295000
1#
1O!
1P!
#296000
0#
0O!
0P!
#297000
1#
1O!
1P!
#298000
0#
0O!
0P!
#299000
1#
1O!
1P!
#300000
b11 (
b10 (
0#
0n!
1q!
0O!
0P!
0E"
0?"
0#"
0{!
0v!
0o!
1A"
1}!
1t!
1r!
#301000
1#
1O!
1P!
#302000
0#
0O!
0P!
#303000
1#
1O!
1P!
#304000
0#
0O!
0P!
#305000
1#
1O!
1P!
#306000
0#
0O!
0P!
#307000
1#
1O!
1P!
#308000
0#
0O!
0P!
#309000
1#
1O!
1P!
#310000
1%
0#
1Q!
0O!
0P!
1T!
#311000
1#
1O!
1P!
#312000
0#
0O!
0P!
1U!
1{
1V!
1a
0_!
0T!
1R!
1W!
#313000
1#
1O!
1P!
#314000
0#
0O!
0P!
1S!
0`!
0U!
1^!
1y
0{
0z
1!"
1y!
0h!
0a!
06
0a
15
0b!
0i!
1z!
1""
1~!
1%"
1w
1(!
1C
13
1e"
1b"
0a"
0:!
1;!
1>!
1P
1M
0L
#315000
1#
1O!
1P!
#316000
0#
0O!
0P!
#317000
1#
1O!
1P!
#318000
0#
0O!
0P!
#319000
1#
1O!
1P!
#320000
0%
0#
0Q!
0O!
0P!
0R!
#321000
1#
1O!
1P!
#322000
0#
0O!
0P!
0S!
#323000
1#
1O!
1P!
#324000
0#
0O!
0P!
#325000
1#
1O!
1P!
#326000
0#
0O!
0P!
#327000
1#
1O!
1P!
#328000
0#
0O!
0P!
#329000
1#
1O!
1P!
#330000
b11 (
0#
1n!
0O!
0P!
1E"
1?"
1#"
1{!
1v!
1o!
#331000
1#
1O!
1P!
#332000
0#
0O!
0P!
#333000
1#
1O!
1P!
#334000
0#
0O!
0P!
#335000
1#
1O!
1P!
#336000
0#
0O!
0P!
#337000
1#
1O!
1P!
#338000
0#
0O!
0P!
#339000
1#
1O!
1P!
#340000
1%
0#
1Q!
0O!
0P!
1T!
#341000
1#
1O!
1P!
#342000
0#
0O!
0P!
1U!
1{
0V!
1a
0T!
1R!
0W!
#343000
1#
1O!
1P!
#344000
0#
0O!
0P!
1S!
0U!
0^!
0y
0{
1C"
1="
0!"
0y!
0a
05
0z!
0""
1>"
1D"
1B"
1@"
1G"
1F"
1%!
1$!
11!
10!
1;
1<
1+
1,
1j"
1i"
0h"
0A!
1B!
1C!
1U
1T
0S
#345000
1#
1O!
1P!
#346000
0#
0O!
0P!
#347000
1#
1O!
1P!
#348000
0#
0O!
0P!
#349000
1#
1O!
1P!
#350000
0%
0#
0Q!
0O!
0P!
0R!
#351000
1#
1O!
1P!
#352000
0#
0O!
0P!
0S!
#353000
1#
1O!
1P!
#354000
0#
0O!
0P!
#355000
1#
1O!
1P!
#356000
0#
0O!
0P!
#357000
1#
1O!
1P!
#358000
0#
0O!
0P!
#359000
1#
1O!
1P!
#360000
b1 (
b0 (
0#
0n!
0q!
0O!
0P!
0E"
0?"
0#"
0{!
0v!
0o!
0A"
0}!
0t!
0r!
#361000
1#
1O!
1P!
#362000
0#
0O!
0P!
#363000
1#
1O!
1P!
#364000
0#
0O!
0P!
#365000
1#
1O!
1P!
#366000
0#
0O!
0P!
#367000
1#
1O!
1P!
#368000
0#
0O!
0P!
#369000
1#
1O!
1P!
#370000
1"
0#
10"
0O!
0P!
13"
#371000
1#
1O!
1P!
#372000
0#
0O!
0P!
14"
0W"
03"
11"
#373000
1#
1O!
1P!
#374000
0#
0O!
0P!
12"
04"
0X"
1N!
1J!
1I!
0s
0="
1[!
07
1[
1\
1`
0>"
1W"
0V"
1K!
0L!
0M!
0_
0^
1]
1\!
0W"
#375000
1#
1O!
1P!
#376000
0#
0O!
0P!
1]!
0[!
1X!
0\!
1Y!
0p!
0%"
0F"
0G"
0$!
0%!
0w
0!!
1x!
1&"
1H"
00
03
0,
0+
0`"
0]"
0\"
0["
0e"
0b"
1a"
0j"
0i"
1h"
1A!
0B!
0C!
1:!
0;!
0>!
04!
05!
06!
09!
0K
0H
0G
0F
0P
0M
1L
0U
0T
1S
0s"
0p"
0t"
#377000
1#
1O!
1P!
0r"
0o"
0q"
0/"
02!
0c
#378000
0#
0O!
0P!
1Z!
0]!
#379000
1#
1O!
1P!
#380000
0#
0O!
0P!
#381000
1#
1O!
1P!
#382000
0#
0O!
0P!
#383000
1#
1O!
1P!
#384000
0#
0O!
0P!
#385000
1#
1O!
1P!
#386000
0#
0O!
0P!
#387000
1#
1O!
1P!
#388000
0#
0O!
0P!
#389000
1#
1O!
1P!
#390000
0"
0#
00"
0O!
0P!
01"
#391000
1#
1O!
1P!
#392000
0#
0O!
0P!
02"
#393000
1#
1O!
1P!
#394000
0#
0O!
0P!
#395000
1#
1O!
1P!
#396000
0#
0O!
0P!
#397000
1#
1O!
1P!
#398000
0#
0O!
0P!
#399000
1#
1O!
1P!
#400000
0#
0O!
0P!
#401000
1#
1O!
1P!
#402000
0#
0O!
0P!
#403000
1#
1O!
1P!
#404000
0#
0O!
0P!
#405000
1#
1O!
1P!
#406000
0#
0O!
0P!
#407000
1#
1O!
1P!
#408000
0#
0O!
0P!
#409000
1#
1O!
1P!
#410000
0#
0O!
0P!
#411000
1#
1O!
1P!
#412000
0#
0O!
0P!
#413000
1#
1O!
1P!
